,bin_center,bin_center_xenergy
0,1.0500005e-13,0.00024180406914474
1,2.464865e-13,0.00114958249632265
2,3.6107000500000004e-13,0.00920919013284638
3,5.28920005e-13,0.020179626308882554
4,7.7479749e-13,0.03467667530456208
5,1.1349759900000001e-12,0.07459521077072757
6,1.66258995e-12,0.14878030822471636
7,2.43547e-12,0.33929915916959996
8,3.5676350000000003e-12,0.73488082955805
9,5.226114900000001e-12,1.5333377739846332
10,7.655565e-12,3.09339295344975
11,1.1214390049999999e-11,5.792224386464163
12,1.64275995e-11,10.352762735317274
13,2.40642495e-11,17.53216394699178
14,3.52508995e-11,25.39721626778299
15,5.16378485e-11,31.676428997239004
16,7.56425995e-11,30.978048417062112
17,1.1080629549999999e-10,21.95185957889001
18,1.6231649999999998e-10,14.170953407690998
19,2.37772e-10,10.121562191744001
20,3.483045e-10,8.835936933717
21,4.72786505e-10,8.10016419744808
22,5.783205000000001e-10,7.547330624494501
23,6.538110050000001e-10,7.206933863296811
24,7.581205100000001e-10,7.66989382786235
25,8.55053e-10,7.2174427758059
26,1.000887495e-09,7.473427348198497
27,1.285165e-09,7.3959887330595
28,1.650185e-09,7.325101247156
29,2.11888005e-09,7.390732224849855
30,2.720695e-09,7.557554188946
31,3.49343985e-09,7.2248584120857595
32,4.4856698499999994e-09,7.475334265367154
33,5.75971495e-09,6.74708675667664
34,7.3956199e-09,7.345014927097056
35,9.4961449e-09,7.898006577809237
36,1.21933e-08,8.074524949134
37,1.56565505e-08,7.03229277813889
38,2.0103401e-08,7.42729377406059
39,2.58132505e-08,8.23168863988696
40,3.3144849499999993e-08,8.298681798830394
41,4.2558849e-08,8.26389897724269
42,5.464665e-08,8.4321983209995
43,7.0167701e-08,8.16325279682518
44,9.00971505e-08,8.038790675797392
45,1.15687e-07,8.037394121328
46,1.48545005e-07,8.12768688879658
47,1.90735505e-07,8.07812623845452
48,2.44908995e-07,7.99024363929521
49,3.1446949e-07,7.97531293782534
50,4.03787e-07,7.900870348762
51,5.18473005e-07,8.1306521865696
52,6.657325e-07,7.9196263848425
53,8.54817015e-07,7.71718885264626
54,1.097608015e-06,7.82095103048175
55,1.298995e-06,7.83491172441
56,1.4356100000000001e-06,9.321855026660002
57,1.5459700000000001e-06,7.882553186750001
58,1.62523505e-06,7.7224766149903
59,1.75346005e-06,8.0488059668321
60,1.9378699499999997e-06,7.742011367424299
61,2.1416748999999998e-06,7.845987446001799
62,2.3669199e-06,7.3750218095727
63,2.5488798999999998e-06,7.5425893247222
64,2.679565e-06,8.52297814158
65,2.80501505e-06,7.88901226262835
66,2.94943995e-06,7.31444295792285
67,3.1950099999999998e-06,7.750237997319999
68,3.5310351e-06,8.4031043654535
69,3.90239505e-06,7.561784057841449
70,4.2023850499999995e-06,8.14173021256535
71,4.417845049999999e-06,7.708874541546998
72,4.766390049999999e-06,7.986706159481498
73,5.267675099999999e-06,9.077637004927197
74,5.89905495e-06,6.0227227379718
75,6.684504800000001e-06,7.41662518822
76,7.57453495e-06,7.43263209733971
77,8.5830752e-06,7.687915388321281
78,9.72591015e-06,7.687568489628225
79,1.10209e-05,7.1946418962
80,1.24883e-05,8.02617546148
81,1.41511e-05,7.668599959240001
82,1.60353e-05,8.34936423345
83,1.817035e-05,8.592167978625001
84,2.03196495e-05,9.155070913313699
85,2.1604849e-05,10.0320625596919
86,2.2726749e-05,10.3489478769858
87,2.387705e-05,11.400501044645
88,2.4481500499999997e-05,11.216272898576499
89,2.542295e-05,13.18873495576
90,2.7073149500000002e-05,10.72712092888135
91,2.9957849500000002e-05,11.33737738353285
92,3.3067250000000004e-05,6.790650779300001
93,3.47409495e-05,5.102170488703349
94,3.56204e-05,5.84680725884
95,3.8466651e-05,5.9621962717215
96,4.3588450500000006e-05,7.1917761368113515
97,4.93921995e-05,8.10976944576435
98,5.4518699e-05,9.0693164235276
99,5.80121995e-05,10.3862025350426
100,6.0986550999999996e-05,10.1085269269051
101,6.494520099999999e-05,11.274162167594998
102,7.1865201e-05,13.002908583374701
103,8.14339005e-05,8.330069123506199
104,9.227669949999999e-05,7.164995044571575
105,0.00010456325,9.1494150790625
106,0.000113938,12.0257343294
107,0.00011977949999999999,8.657141219175
108,0.000125920495,16.0274250366395
109,0.000132376995,16.007661644976
110,0.00013916400500000003,8.984213850232303
111,0.000146299005,8.5142451214278
112,0.0001538,8.70450325
113,0.00015963950499999998,10.589284272622399
114,0.000163681005,10.32336589578015
115,0.00016782450000000002,8.91740179836
116,0.00017207300000000002,10.25789959645
117,0.00017868999499999998,11.817753951222448
118,0.00018785149499999997,11.715324672405899
119,0.000197483,10.81017597374
120,0.00020760799500000001,10.83736363171455
121,0.000218252495,11.26223250911575
122,0.000229443,10.570542259349999
123,0.0002412065,12.877279355175
124,0.000253573,13.85329142228
125,0.000266574,18.39258768732
126,0.00027669550000000004,13.96184464142
127,0.00028369999500000003,12.21401956773705
128,0.00029088199,12.6642484602459
129,0.000298246,13.95066243974
130,0.000305796,15.8793899778
131,0.000313536995,12.5093673409721
132,0.00032559450499999995,11.84344476830915
133,0.000342288505,14.656211893641501
134,0.000359838,11.794733980200002
135,0.000378287005,12.48061509811225
136,0.000397682,13.1605301942
137,0.00041807149,10.7144950128862
138,0.00043950649,10.2614788617677
139,0.000462040495,12.806210065336801
140,0.00048573001000000004,13.944317697879601
141,0.0005041725250000001,15.658807075635751
142,0.0005169355149999999,14.4926696953061
143,0.00053002199,11.1579116288621
144,0.0005434394949999999,13.036743946193399
145,0.000564337505,12.843311449666048
146,0.00059327201,15.7252323007394
147,0.00062369002,16.2219466548926
148,0.0006556670099999999,12.4614957286683
149,0.0006892835100000001,15.519686940436802
150,0.0007246240000000001,14.317765907360002
151,0.00076177649,14.337082989929101
152,0.0008008335100000001,11.5388496705105
153,0.0008418930199999999,11.854215735598599
154,0.0008850575249999999,11.883021296181749
155,0.00093043552,12.8124041541216
156,0.000957665995,13.584501715734952
157,0.0009697369850000001,9.031614378213982
158,0.000990212045,11.3810417476893
159,0.00102829005,11.824492377159002
160,0.00108101,13.219865871800001
161,0.001136435,11.830992939700002
162,0.001179585,10.392956584064999
163,0.001209445,13.2150975481
164,0.001255955,11.378483828785
165,0.00132035,9.89625959265
166,0.0013880450499999999,10.803684857359098
167,0.00145921505,9.59285201361405
168,0.00151462,9.618292900619998
169,0.0015529599500000001,9.0750351657349
170,0.00159227495,11.079096870348499
171,0.001632585,10.41836729886
172,0.001695365,9.885040943854998
173,0.001782285,10.12949560212
174,0.001849955,9.053219131205
175,0.00189679,8.74830086319
176,0.00194481,8.60846030856
177,0.001994045,8.826374984515
178,0.002070725,8.242657530349998
179,0.0021768900499999997,9.561604235086149
180,0.0022500899999999997,10.074267204569999
181,0.0022878699,9.5542407929358
182,0.00232627995,8.21370136213845
183,0.00235547495,10.36210411461715
184,0.00237522495,9.91454760026745
185,0.002405165,7.617010839935
186,0.00244555005,9.95614483840635
187,0.0025291849999999998,7.759395416454999
188,0.0026588599,8.2894636975924
189,0.0027951849499999997,6.780461820236749
190,0.002938495,6.39743860343
191,0.0030500650000000002,6.133378758565001
192,0.0031272800500000003,6.5976164669249
193,0.0032064500500000002,5.687488872938251
194,0.00328762005,4.33126517201235
195,0.0034140450999999997,5.5309647327962
196,0.0035890851,4.5030635661405
197,0.0037730999999999997,4.7268302601
198,0.0039665549,4.8061079770242
199,0.0041699249,4.1737403812835
200,0.00438372,4.125710022192
201,0.00455016505,4.424570939273395
202,0.0046653549999999995,5.283276604394999
203,0.00478345995,4.389463096028325
204,0.0049045500499999995,3.8420155753378697
205,0.005093155,3.9099356402820002
206,0.0053542899,3.69077199611688
207,0.00562881,3.5328010142040003
208,0.005842525,3.5809875694450004
209,0.00599043,3.72404665638
210,0.00614208005,3.9724965303223647
211,0.00629756505,2.9780120832956554
212,0.00645699005,2.30289066692454
213,0.006565039999999999,4.3156603447999995
214,0.0066199899,2.91379120248096
215,0.0066753998499999995,2.2090239859019847
216,0.0067880449500000006,3.1935416402287204
217,0.00695988515,3.399208603248515
218,0.00713607505,4.218592811680716
219,0.007316724849999999,2.9163111658002747
220,0.007501949799999999,3.19859433310632
221,0.007691864850000001,3.7045067211219602
222,0.00788658485,2.9616223943320095
223,0.008086234800000001,3.4079671065409207
224,0.00829093995,2.584656587430765
225,0.00850082515,2.97948650995907
226,0.008716024900000001,2.8590618653876403
227,0.00893666965,2.41031632063722
228,0.009162904699999998,2.7585263626823893
229,0.00939486505,2.510462956633325
230,0.009632695,2.8868791974505
231,0.009876549699999999,2.57976268287976
232,0.0101265999,3.25134236659305
233,0.01038295,1.933050907725
234,0.010645749999999999,2.2588940135499995
235,0.01091525,2.5074119351
236,0.0111916,2.76053572424
237,0.0114749,2.60606109653
238,0.011765399999999999,3.0016829711999997
239,0.01206325,2.4927294724749998
240,0.0123686,2.67751865906
241,0.0126817,2.5160353301300002
242,0.01300275,2.8154009396250004
243,0.013331949999999999,2.6547058790199998
244,0.01366945,3.33858272576
245,0.0140155,2.60834481665
246,0.014370299999999999,2.5986345191099995
247,0.0147341,3.1688186847
248,0.0151071,2.94337369998
249,0.0154895,2.5234269729500003
250,0.0158816,3.6771557849599996
251,0.01628365,3.22509738151
252,0.0166959,3.5151597947699997
253,0.01711855,3.1921987298
254,0.017551900000000002,2.53134905952
255,0.01799625,2.93611338225
256,0.01845185,2.4544041958949996
257,0.01891895,2.292100792615
258,0.01939785,2.52169722258
259,0.01982015,2.69631734988
260,0.020889042,2.6261452933896
261,0.022746166999999998,2.7543993259143
262,0.024768398,2.45876927218716
263,0.026970413500000002,3.0218918894834506
264,0.0293681985,3.58182478319595
265,0.0319791565,3.6713734578138
266,0.034822240500000004,3.7065732988693507
267,0.037918087,4.1157012073453005
268,0.0412891655,3.558991876312125
269,0.0449599475,3.4380867357255247
270,0.0489570795,3.9562485207887255
271,0.0533095725,3.97587376328235
272,0.058049021,4.53527887376703
273,0.063209826,4.6128034226673
274,0.068829447,4.74957392535159
275,0.0749486795,4.2886556278657855
276,0.08161193850000001,4.24630670164671
277,0.088867586,4.05140748372636
278,0.096768305,3.8989159688312496
279,0.1053714,3.425419793484
280,0.11473934999999999,3.1600674179744996
281,0.1249402,3.243005303692
282,0.1360479,3.7268363115239995
283,0.14814315,3.092719359564
284,0.16131374999999998,2.4908310955124997
285,0.1756552,2.448166245168
286,0.19127165000000002,2.0654622142570003
287,0.2082765,1.7354295706275
288,0.2267932,1.6687151092772001
289,0.2469561,1.3902356606085
290,0.26891155,1.3793608206241
291,0.29281895,1.1022999537759
292,0.3188518,0.5965309047696
293,0.34719905,0.5386814092693001
294,0.37806649999999997,0.46494731589949995
295,0.41167825,0.37376210682544997
296,0.4482782,0.42717388993348004
297,0.48813204999999993,0.25620884668900495
298,0.5315291,0.18394824229467
299,0.5787842999999999,0.13538615589921
300,0.6302406500000001,0.10843529874697
301,0.6862717,0.11363993668450999
302,0.7472842499999999,0.098892384322725
303,0.8137209999999999,0.029358007234793995
304,0.88606425,0.10841828999145
305,0.9648392000000001,0.0877199748681776
306,1.0506175,0.046067911095645
307,1.144022,0.011715306954032001
308,1.2457305,0.020296318300272
309,1.356481,0.038208404558337995
310,1.4770780000000001,0.026131045981120003
311,1.6083965,0.0023497791463718
312,1.7513895000000002,0.0
313,1.9070955,0.00130429163844351
314,2.0766445,0.0
315,2.261267,0.0
316,2.4623035,0.0
317,2.6812129999999996,0.0
318,2.9195839999999995,0.0
319,3.1791475,0.0
320,3.4617875,0.0
321,3.769555,0.0
322,4.104684499999999,0.0
323,4.4696085,0.0029598035329787397
324,4.866975500000001,0.0
325,5.2996704999999995,0.0
326,5.770834,0.0
327,6.2838855,0.0
328,6.8425495,0.0
329,7.450880999999999,0.0
330,8.113296,0.0
331,8.834603000000001,0.0
332,9.620038000000001,0.0
333,10.4753,0.0
334,11.406600000000001,0.0
335,12.420695,0.0
336,13.524945,0.0
337,14.72737,0.0
338,16.036695,0.0
339,17.462425,0.0
340,19.01491,0.0
341,20.705419999999997,0.0
342,22.546219999999998,0.0
343,24.550675,0.0
344,26.733334999999997,0.0
345,29.110039999999998,0.0
346,31.698045,0.0
347,34.516135,0.0
348,37.58477,0.0
349,40.92622,0.0
350,44.564735,0.0
351,48.52673,0.0
352,52.84096000000001,0.0
353,57.538745000000006,0.0
354,62.654185,0.0
355,68.22440999999999,0.0
356,74.28985,0.0
357,80.89453499999999,0.0
358,88.086405,0.0
359,95.91766000000001,0.0
