,bin_center,bin_center_xenergy
0,1.0500005e-13,0.0
1,2.464865e-13,0.0
2,3.6107000500000004e-13,0.0023659706398853233
3,5.28920005e-13,0.004832726059408848
4,7.7479749e-13,0.0280017391427928
5,1.1349759900000001e-12,0.13323425262834512
6,1.66258995e-12,0.13873362962593574
7,2.43547e-12,0.2716677646798
8,3.5676350000000003e-12,0.6117320629848501
9,5.226114900000001e-12,1.2036013850063312
10,7.655565e-12,2.66488939170645
11,1.1214390049999999e-11,5.6916542972152655
12,1.64275995e-11,9.903419263297755
13,2.40642495e-11,15.89390978768595
14,3.52508995e-11,23.245486204416206
15,5.16378485e-11,27.384047299274084
16,7.56425995e-11,28.379630570987736
17,1.1080629549999999e-10,21.949951494481496
18,1.6231649999999998e-10,15.422370933451498
19,2.37772e-10,11.105539765872
20,3.483045e-10,9.068591104146
21,4.72786505e-10,9.358677904613115
22,5.783205000000001e-10,9.220876222356
23,6.538110050000001e-10,9.407247189949642
24,7.581205100000001e-10,9.419610188845011
25,8.55053e-10,10.796541322803
26,1.000887495e-09,10.405413563981565
27,1.285165e-09,9.8779040076535
28,1.650185e-09,9.515683385345499
29,2.11888005e-09,10.08059980709166
30,2.720695e-09,10.0649703709925
31,3.49343985e-09,9.473999616152984
32,4.4856698499999994e-09,10.312741140448773
33,5.75971495e-09,9.357612472985204
34,7.3956199e-09,10.35639938069177
35,9.4961449e-09,10.06536661605376
36,1.21933e-08,10.961626844343
37,1.56565505e-08,10.04132490560288
38,2.0103401e-08,10.41234204466133
39,2.58132505e-08,10.93541134725279
40,3.3144849499999993e-08,11.671879866683188
41,4.2558849e-08,10.31226233785155
42,5.464665e-08,11.2399574061285
43,7.0167701e-08,11.63776368749042
44,9.00971505e-08,11.253001654638766
45,1.15687e-07,11.054828526456
46,1.48545005e-07,11.90379776723984
47,1.90735505e-07,12.1810102205968
48,2.44908995e-07,11.96611732629878
49,3.1446949e-07,11.47004445608332
50,4.03787e-07,12.230177653882
51,5.18473005e-07,11.65654444820826
52,6.657325e-07,11.61894410874
53,8.54817015e-07,12.044700845900776
54,1.097608015e-06,12.539300070611091
55,1.298995e-06,12.666773033950001
56,1.4356100000000001e-06,12.5159781703
57,1.5459700000000001e-06,11.73186698169
58,1.62523505e-06,12.709858166216
59,1.75346005e-06,12.1705592987641
60,1.9378699499999997e-06,14.666388894064799
61,2.1416748999999998e-06,13.413142848057799
62,2.3669199e-06,11.748088577655
63,2.5488798999999998e-06,12.209318240352799
64,2.679565e-06,14.900876075014999
65,2.80501505e-06,14.325436261554
66,2.94943995e-06,12.8928160668762
67,3.1950099999999998e-06,14.69269120137
68,3.5310351e-06,13.2860350948746
69,3.90239505e-06,12.907397966787899
70,4.2023850499999995e-06,13.167547398802549
71,4.417845049999999e-06,14.150923179316397
72,4.766390049999999e-06,13.621208362068097
73,5.267675099999999e-06,12.554318373952496
74,5.89905495e-06,12.4936320748248
75,6.684504800000001e-06,12.508479874572002
76,7.57453495e-06,12.2366763607949
77,8.5830752e-06,11.281336550624001
78,9.72591015e-06,11.599042637608799
79,1.10209e-05,13.2191838185
80,1.24883e-05,13.8212886537
81,1.41511e-05,14.324861356900001
82,1.60353e-05,15.875557944929998
83,1.817035e-05,16.012014047810002
84,2.03196495e-05,17.9234914080816
85,2.1604849e-05,22.052868753713
86,2.2726749e-05,30.012285653679
87,2.387705e-05,52.368005633799996
88,2.4481500499999997e-05,68.34901991193199
89,2.542295e-05,29.94688768365
90,2.7073149500000002e-05,11.322031730624252
91,2.9957849500000002e-05,9.3697308494481
92,3.3067250000000004e-05,10.83626348055
93,3.47409495e-05,14.145291754977599
94,3.56204e-05,11.59492463744
95,3.8466651e-05,12.134228124648
96,4.3588450500000006e-05,12.017344520540101
97,4.93921995e-05,13.710276858770099
98,5.4518699e-05,13.7022882051981
99,5.80121995e-05,15.5386256482745
100,6.0986550999999996e-05,15.329872194804798
101,6.494520099999999e-05,15.397578440725699
102,7.1865201e-05,17.1914352797778
103,8.14339005e-05,15.313539124954351
104,9.227669949999999e-05,14.91862315525365
105,0.00010456325,16.19247668115
106,0.000113938,22.7477330938
107,0.00011977949999999999,24.393849785849994
108,0.000125920495,24.830778683079497
109,0.000132376995,16.626299055709502
110,0.00013916400500000003,15.034945106588005
111,0.000146299005,14.9716110859785
112,0.0001538,19.34560996
113,0.00015963950499999998,20.701252810874998
114,0.000163681005,26.3295791513955
115,0.00016782450000000002,19.224397169700005
116,0.00017207300000000002,17.0474097684
117,0.00017868999499999998,28.389087051632995
118,0.00018785149499999997,16.056925882666498
119,0.000197483,15.261043878079999
120,0.00020760799500000001,20.5972293128994
121,0.000218252495,21.165655539710798
122,0.000229443,21.49814142087
123,0.0002412065,25.316286499849998
124,0.000253573,23.57671800119
125,0.000266574,29.721428213400003
126,0.00027669550000000004,20.776104961615
127,0.00028369999500000003,21.065459411737052
128,0.00029088199,24.274573294323798
129,0.000298246,41.3379692856
130,0.000305796,52.5926614356
131,0.000313536995,30.9408590679436
132,0.00032559450499999995,17.24654882909205
133,0.000342288505,25.079153587270252
134,0.000359838,18.29825167968
135,0.000378287005,20.9674500094568
136,0.000397682,15.452737427639999
137,0.00041807149,17.6936508647843
138,0.00043950649,19.762374162330797
139,0.000462040495,20.58881554271185
140,0.00048573001000000004,21.1155627060181
141,0.0005041725250000001,21.118395556081
142,0.0005169355149999999,24.631656789730695
143,0.00053002199,27.6542312421037
144,0.0005434394949999999,25.456841663015346
145,0.000564337505,24.74906078540035
146,0.00059327201,27.8814885073213
147,0.00062369002,31.9396461655154
148,0.0006556670099999999,23.050806433652696
149,0.0006892835100000001,19.6256316313101
150,0.0007246240000000001,19.773344063520003
151,0.00076177649,21.5094219406963
152,0.0008008335100000001,19.6984141705389
153,0.0008418930199999999,18.8076038231732
154,0.0008850575249999999,19.9563655794525
155,0.00093043552,20.0334025725792
156,0.000957665995,23.901724779668452
157,0.0009697369850000001,18.104097351923805
158,0.000990212045,17.137243386478797
159,0.00102829005,18.037708780473
160,0.00108101,19.298795885600004
161,0.001136435,19.299882411050003
162,0.001179585,21.5557834734
163,0.001209445,19.15379904825
164,0.001255955,16.6681555915
165,0.00132035,16.401519735
166,0.0013880450499999999,18.1865687781645
167,0.00145921505,17.7080269884155
168,0.00151462,20.1077013188
169,0.0015529599500000001,17.838555883259502
170,0.00159227495,16.252605178642
171,0.001632585,12.665690752515
172,0.001695365,15.85190688256
173,0.001782285,15.12766436472
174,0.001849955,14.099777974084999
175,0.00189679,13.40991645805
176,0.00194481,10.56612939228
177,0.001994045,13.551057231335001
178,0.002070725,13.190830929474998
179,0.0021768900499999997,13.423535620299097
180,0.0022500899999999997,13.783421314799998
181,0.0022878699,11.246440885771799
182,0.00232627995,15.2865810791172
183,0.00235547495,8.683387738926498
184,0.00237522495,11.3072916276243
185,0.002405165,9.514979455065
186,0.00244555005,12.090554892195
187,0.0025291849999999998,12.409307097324998
188,0.0026588599,11.5247697416322
189,0.0027951849499999997,10.53915261287165
190,0.002938495,7.982401098035
191,0.0030500650000000002,10.57931515601
192,0.0031272800500000003,9.74020455276965
193,0.0032064500500000002,8.04185047375115
194,0.00328762005,7.235528998462049
195,0.0034140450999999997,8.303538070866999
196,0.0035890851,6.9174375238254004
197,0.0037730999999999997,8.7214376418
198,0.0039665549,7.916489934968999
199,0.0041699249,6.5042947281939005
200,0.00438372,4.8829731033599995
201,0.00455016505,6.182295602939851
202,0.0046653549999999995,3.9546562799329994
203,0.00478345995,7.015958110184401
204,0.0049045500499999995,6.805911681533648
205,0.005093155,4.756399665924
206,0.0053542899,5.4039188130830995
207,0.00562881,4.989492574604999
208,0.005842525,6.988168199675
209,0.00599043,4.357786226939999
210,0.00614208005,7.4318063030590995
211,0.00629756505,4.12316949882222
212,0.00645699005,4.099306011210165
213,0.006565039999999999,6.7602055091199995
214,0.0066199899,4.76614646437572
215,0.0066753998499999995,6.231310196958945
216,0.0067880449500000006,3.5310927878708553
217,0.00695988515,5.60774789457563
218,0.00713607505,4.463146103644215
219,0.007316724849999999,3.08819493430399
220,0.007501949799999999,4.16283869577482
221,0.007691864850000001,3.926136268977435
222,0.00788658485,5.418589322038885
223,0.008086234800000001,3.685826306738521
224,0.00829093995,4.033749559173749
225,0.00850082515,3.4322498083557353
226,0.008716024900000001,6.11964920785603
227,0.00893666965,4.11223534945645
228,0.009162904699999998,5.229907450457119
229,0.00939486505,2.9959567003896495
230,0.009632695,4.9112150967075
231,0.009876549699999999,4.66641491826774
232,0.0101265999,3.9093536381952
233,0.01038295,3.193376987115
234,0.010645749999999999,5.227347491524999
235,0.01091525,4.400879261075
236,0.0111916,4.530797271559999
237,0.0114749,2.80076260977
238,0.011765399999999999,4.3314673061999995
239,0.01206325,4.219098767325
240,0.0123686,4.013503093180001
241,0.0126817,3.78473162068
242,0.01300275,3.8516160926250005
243,0.013331949999999999,2.7385838424449997
244,0.01366945,4.524089015075
245,0.0140155,4.88096655095
246,0.014370299999999999,3.7529705404800002
247,0.0147341,2.6413379047
248,0.0151071,4.51841577462
249,0.0154895,4.63901386195
250,0.0158816,4.41276291008
251,0.01628365,5.0240596691
252,0.0166959,4.428721042199999
253,0.01711855,4.34657787792
254,0.017551900000000002,4.735995828390001
255,0.01799625,4.741340614874999
256,0.01845185,5.146680416064999
257,0.01891895,4.560980466
258,0.01939785,4.6917618590700005
259,0.01982015,5.7063083936600005
260,0.020889042,4.5942460745994
261,0.022746166999999998,4.916875147987599
262,0.024768398,4.69522136687
263,0.026970413500000002,4.55751171701565
264,0.0293681985,4.76439990583515
265,0.0319791565,5.955638210777501
266,0.034822240500000004,5.4435867461625005
267,0.037918087,6.6055999738177
268,0.0412891655,6.095011646029351
269,0.0449599475,7.108621795219749
270,0.0489570795,5.267962895394151
271,0.0533095725,8.5931085961635
272,0.058049021,7.9118029269992
273,0.063209826,7.632194588578799
274,0.068829447,7.6580537515011
275,0.0749486795,7.779553014212801
276,0.08161193850000001,8.695678596430351
277,0.088867586,6.6961370580656
278,0.096768305,7.126058622888099
279,0.1053714,6.91810131273
280,0.11473934999999999,5.729057369210999
281,0.1249402,4.854012978738
282,0.1360479,6.147600538737
283,0.14814315,4.7452724935605
284,0.16131374999999998,4.708806435449999
285,0.1756552,3.94323088824
286,0.19127165000000002,3.1537500848445
287,0.2082765,2.398026889755
288,0.2267932,2.351512097996
289,0.2469561,1.2613966875897
290,0.26891155,0.9547242054884
291,0.29281895,0.8598751450709
292,0.3188518,0.5583809246032001
293,0.34719905,0.31544929399313
294,0.37806649999999997,0.1787805401998
295,0.41167825,0.25836037744980006
296,0.4482782,0.0
297,0.48813204999999993,0.11238859708250999
298,0.5315291,0.10842853461376001
299,0.5787842999999999,0.0434744010763272
300,0.6302406500000001,0.156243904902475
301,0.6862717,0.0126339113121613
302,0.7472842499999999,0.0
303,0.8137209999999999,0.0
304,0.88606425,0.003957662592130575
305,0.9648392000000001,0.0
306,1.0506175,0.0
307,1.144022,0.0
308,1.2457305,0.0
309,1.356481,0.0
310,1.4770780000000001,0.0
311,1.6083965,0.0
312,1.7513895000000002,0.0
313,1.9070955,0.0
314,2.0766445,0.0
315,2.261267,0.0
316,2.4623035,0.0
317,2.6812129999999996,0.0
318,2.9195839999999995,0.0
319,3.1791475,0.0
320,3.4617875,0.0
321,3.769555,0.0
322,4.104684499999999,0.0
323,4.4696085,0.0
324,4.866975500000001,0.0
325,5.2996704999999995,0.0
326,5.770834,0.0
327,6.2838855,0.0
328,6.8425495,0.0
329,7.450880999999999,0.0
330,8.113296,0.0
331,8.834603000000001,0.0
332,9.620038000000001,0.0
333,10.4753,0.0
334,11.406600000000001,0.0
335,12.420695,0.0
336,13.524945,0.0
337,14.72737,0.0
338,16.036695,0.0
339,17.462425,0.0
340,19.01491,0.0
341,20.705419999999997,0.0
342,22.546219999999998,0.0
343,24.550675,0.0
344,26.733334999999997,0.0
345,29.110039999999998,0.0
346,31.698045,0.0
347,34.516135,0.0
348,37.58477,0.0
349,40.92622,0.0
350,44.564735,0.0
351,48.52673,0.0
352,52.84096000000001,0.0
353,57.538745000000006,0.0
354,62.654185,0.0
355,68.22440999999999,0.0
356,74.28985,0.0
357,80.89453499999999,0.0
358,88.086405,0.0
359,95.91766000000001,0.0
