,bin_center,dflux/dE
0,1.087448735e-05,0.0
1,1.27764085e-05,0.0
2,1.5010971e-05,0.0
3,1.7636353500000002e-05,0.0
4,2.07209085e-05,0.0
5,2.4344945e-05,5.405733000000001
6,2.8602816500000002e-05,507.1783
7,3.3605378e-05,657.1977
8,3.94828765e-05,690.2164
9,4.63883355e-05,674.7823
10,5.4501541e-05,636.2075
11,6.40337275e-05,624.0787
12,7.5233071e-05,688.2988
13,8.8391149e-05,733.182
14,0.000103850545,754.5168
15,0.00012201375499999999,683.5823
16,0.00014335366,550.4235
17,0.00016842586,517.2755
18,0.00019788312999999998,600.1633
19,0.0002324924,759.5178
20,0.00027315475499999997,673.4257
21,0.000320928855,531.1998
22,0.00037705852000000003,578.9808
23,0.000443005135,533.3905
24,0.00052048564,547.5673
25,0.000611517315,587.723
26,0.000718470225,474.126
27,0.000844128895,404.1219
28,0.000991764965,431.6672
29,0.00116522225,340.1308
30,0.00136901675,353.5722
31,0.00160845445,298.3666
32,0.00188976925,227.3534
33,0.0022202852499999997,128.3486
34,0.0026086076499999998,128.2324
35,0.00306484675,124.4746
36,0.00360088095,92.85556
37,0.0042306662,74.61031
38,0.0049705992,56.761340000000004
39,0.0058399448,34.79705
40,0.006861337,21.81198
41,0.00806136805,8.364578
42,0.00947128135,4.070167
43,0.011127785000000001,5.105494
44,0.0130740075,3.198929
45,0.01536062,1.8787200000000002
46,0.018047155000000002,2.012188
47,0.021203557999999997,2.0595790000000003
48,0.024912008,2.039295
49,0.029269057,1.120639
50,0.034388143499999996,1.218466
51,0.0404025465,1.286867
52,0.047468852000000006,0.3856664
53,0.055771037499999995,0.23838739999999997
54,0.0655252575,0.2203319
55,0.0769854635,0.164045
56,0.09045003,0.11531210000000001
57,0.10626949999999999,0.036294065
58,0.12485579999999999,0.08231045299999999
59,0.14669279999999998,0.008421448100000001
60,0.172349,0.013097669
61,0.20249240000000002,0.06493686900000001
62,0.2379078,0.0071701664000000005
63,0.27951729999999997,0.011234313999999999
64,0.3284042,0.0033346654
65,0.3858413,0.0
66,0.453324,0.0
67,0.53260925,0.0
68,0.6257613000000001,0.0
69,0.7352054,0.0
70,0.8637910499999999,0.0
71,1.01486605,0.0
72,1.1923635,0.0
73,1.400905,0.0
74,1.6459200000000003,0.0
75,1.9337875000000002,0.0
76,2.272002,0.0
77,2.6693695,0.0
78,3.1362360000000002,0.0
79,3.684756,0.0
80,4.3292105,0.0
81,5.0863785,0.0
82,5.975974000000001,0.0
83,7.021157500000001,0.0
84,8.249140500000001,0.0
85,9.6918935,0.0
86,11.386980000000001,0.0
87,13.378535,0.0
88,15.718409999999999,0.0
89,18.467525,0.0
90,21.69745,0.0
91,25.49228,0.0
92,29.950819999999997,0.0
93,35.189144999999996,0.0
94,41.34363999999999,0.0
95,48.57454,0.0
96,57.070105,0.0
97,67.051525,0.0
98,78.77867499999999,0.0
99,92.55687499999999,0.0
