  **** v3_31_4_0_usrtrack_21.trk ****


  Total primaries run:           22200

    Total weight of the primaries run:  22200.


  Detector n:  1  ME11_Nlow 
     (Volume:         1. cmc,
      distr. scored: 8   ,
      from reg. 242 )

     Tot. response (p/cmq/pr)   2.511109      +/-   1.408609     %
     ( --> Track l. (cm/pr)       2.511109      +/-   1.408609     % )

  **** Different. Fluxes as a function of energy ****
  ****      (integrated over solid angle)        ****


  Energy boundaries (GeV):


  Lowest boundary   (GeV):  2.0000000E-02

  Flux (Part/GeV/cmq/pr):



  Energy boundaries (GeV):

  2.0000000E-02  1.9640300E-02  1.9155400E-02  1.8682500E-02  1.8221200E-02
  1.7771300E-02  1.7332500E-02  1.6904600E-02  1.6487200E-02  1.6080100E-02
  1.5683100E-02  1.5295900E-02  1.4918300E-02  1.4549900E-02  1.4190700E-02
  1.3840300E-02  1.3498600E-02  1.3165300E-02  1.2840200E-02  1.2523200E-02
  1.2214000E-02  1.1912500E-02  1.1618300E-02  1.1331500E-02  1.1051700E-02
  1.0778800E-02  1.0512700E-02  1.0253200E-02  9.9999998E-03  9.7530996E-03
  9.5122904E-03  9.2774397E-03  9.0483697E-03  8.8249696E-03  8.6070802E-03
  8.3945701E-03  8.1873098E-03  7.9851598E-03  7.7880099E-03  7.5957198E-03
  7.4081798E-03  7.2252699E-03  7.0468802E-03  6.8728901E-03  6.7031998E-03
  6.6475999E-03  6.5923799E-03  6.5377001E-03  6.3762800E-03  6.2188501E-03
  6.0653100E-03  5.9155500E-03  5.7695000E-03  5.4881200E-03  5.2204598E-03
  4.9658502E-03  4.8432499E-03  4.7236700E-03  4.6070400E-03  4.4932901E-03
  4.2741499E-03  4.0656999E-03  3.8674099E-03  3.6787901E-03  3.4993801E-03
  3.3287101E-03  3.2465300E-03  3.1663701E-03  3.0881900E-03  3.0119400E-03
  2.8650500E-03  2.7253199E-03  2.5923999E-03  2.4659701E-03  2.4251300E-03
  2.3852000E-03  2.3652499E-03  2.3457000E-03  2.3068599E-03  2.2688799E-03
  2.2313001E-03  2.1224800E-03  2.0189700E-03  1.9691200E-03  1.9205000E-03
  1.8730800E-03  1.8268300E-03  1.7377400E-03  1.6529900E-03  1.6121800E-03
  1.5723699E-03  1.5335500E-03  1.4956900E-03  1.4227401E-03  1.3533500E-03
  1.2873500E-03  1.2245600E-03  1.1943300E-03  1.1648400E-03  1.1080300E-03
  1.0539900E-03  1.0025901E-03  9.7783399E-04  9.6163998E-04  9.5369201E-04
  9.0717903E-04  8.6293602E-04  8.2085002E-04  7.8081700E-04  7.4273598E-04
  7.0651202E-04  6.7205500E-04  6.3927902E-04  6.0810102E-04  5.7844300E-04
  5.5023201E-04  5.3664698E-04  5.2339700E-04  5.1047403E-04  4.9787102E-04
  4.7358900E-04  4.5049199E-04  4.2852099E-04  4.0762199E-04  3.8774201E-04
  3.6883200E-04  3.5084400E-04  3.3373301E-04  3.1745600E-04  3.0961799E-04
  3.0197401E-04  2.9451799E-04  2.8724599E-04  2.8015400E-04  2.7323700E-04
  2.5991100E-04  2.4723500E-04  2.3517800E-04  2.2370800E-04  2.1279699E-04
  2.0241900E-04  1.9254700E-04  1.8315599E-04  1.7422400E-04  1.6992200E-04
  1.6572700E-04  1.6163501E-04  1.5764400E-04  1.4995600E-04  1.4264201E-04
  1.3568600E-04  1.2906799E-04  1.2277300E-04  1.1678600E-04  1.1109000E-04
  9.8036500E-05  8.6516899E-05  7.6350902E-05  6.7379500E-05  6.2510902E-05
  5.9462200E-05  5.6562199E-05  5.2475199E-05  4.6309200E-05  4.0867701E-05
  3.6065601E-05  3.5175199E-05  3.4306700E-05  3.1827800E-05  2.8087899E-05
  2.6058400E-05  2.4787500E-05  2.4175501E-05  2.3578599E-05  2.1874899E-05
  2.1334799E-05  1.9304500E-05  1.7036200E-05  1.5034400E-05  1.3267800E-05
  1.1708800E-05  1.0333000E-05  9.1188203E-06  8.0473301E-06  7.1017398E-06
  6.2672698E-06  5.5308401E-06  5.0045101E-06  4.5282700E-06  4.3074201E-06
  4.0973500E-06  3.7074401E-06  3.3546301E-06  3.0353899E-06  2.8634900E-06
  2.7465401E-06  2.6125899E-06  2.4851699E-06  2.2486699E-06  2.0346799E-06
  1.8410600E-06  1.6658601E-06  1.5846100E-06  1.5073300E-06  1.3638900E-06
  1.2341000E-06  9.6111603E-07  7.4851800E-07  5.8294700E-07  4.5399901E-07
  3.5357499E-07  2.7536399E-07  2.1445400E-07  1.6701701E-07  1.3007300E-07
  1.0130100E-07  7.8893301E-08  6.1442101E-08  4.7851199E-08  3.7266499E-08
  2.9023200E-08  2.2603301E-08  1.7603501E-08  1.3709600E-08  1.0677000E-08
  8.3152898E-09  6.4759500E-09  5.0434799E-09  3.9278598E-09  3.0590199E-09
  2.3823701E-09  1.8553900E-09  1.4449800E-09  1.1253500E-09  8.7642499E-10
  8.3368101E-10  6.8256001E-10  6.2506200E-10  5.3157900E-10  4.1399401E-10
  2.8261499E-10  1.9292901E-10  1.3170399E-10  8.9908601E-11  6.1376598E-11
  4.1899099E-11  2.8602700E-11  1.9525799E-11  1.3329400E-11  9.0993801E-12
  6.2117499E-12  4.2404799E-12  2.8947901E-12  1.9761499E-12  1.3490300E-12
  9.2092198E-13  6.2867300E-13  4.2916701E-13  2.9297300E-13  2.0000000E-13
  Lowest boundary   (GeV):  1.0000100E-14

  Flux (Part/GeV/cmq/pr):

   2.885461     +/-    48.98849     %    1.669154     +/-    27.20679     % 
  0.9076225     +/-    27.41175     %    1.068789     +/-    23.65055     % 
   1.408203     +/-    25.23978     %    1.306506     +/-    23.54128     % 
   1.062950     +/-    37.49445     %    2.653326     +/-    26.00097     % 
   3.112190     +/-    48.40356     %    3.819060     +/-    60.59027     % 
   2.000010     +/-    28.65096     %    2.228739     +/-    32.51429     % 
   1.835199     +/-    24.09548     %    1.470989     +/-    32.11200     % 
   1.902397     +/-    38.27821     %    1.361826     +/-    37.77467     % 
   2.244583     +/-    32.54858     %    1.480594     +/-    23.84411     % 
   4.607932     +/-    32.27776     %    1.916198     +/-    33.49441     % 
   2.827769     +/-    29.98749     %    1.665480     +/-    24.12303     % 
   1.959123     +/-    32.72030     %    2.754682     +/-    23.12562     % 
   7.400862     +/-    98.40668     %    2.543880     +/-    24.98866     % 
  0.9331625     +/-    36.65738     %    3.764956     +/-    33.33654     % 
   3.045298     +/-    21.49528     %    3.085752     +/-    24.27943     % 
   2.474271     +/-    36.42855     %    3.875658     +/-    27.69102     % 
   4.101804     +/-    17.87700     %    3.212886     +/-    23.20841     % 
   5.544313     +/-    21.90977     %    2.956260     +/-    28.35519     % 
   3.681247     +/-    32.30195     %    4.282123     +/-    23.88241     % 
   3.653794     +/-    24.13195     %    6.013582     +/-    23.72545     % 
   3.994035     +/-    23.22159     %    9.091142     +/-    15.13698     % 
   7.175014     +/-    23.82859     %    4.461729     +/-    18.82642     % 
   3.987120     +/-    40.77972     %    10.82487     +/-    57.17956     % 
   5.884790     +/-    40.87025     %    4.254825     +/-    26.52726     % 
   4.953774     +/-    24.81083     %    8.872679     +/-    23.79020     % 
   8.568986     +/-    26.79933     %    7.896588     +/-    20.59578     % 
   6.835653     +/-    14.82104     %    9.082561     +/-    15.39244     % 
   7.225965     +/-    15.13122     %    7.094382     +/-    19.25031     % 
   10.91160     +/-    20.33659     %    13.79599     +/-    18.86516     % 
   11.94531     +/-    29.26426     %    9.407231     +/-    14.58514     % 
   11.63231     +/-    13.40345     %    11.60373     +/-    13.90041     % 
   12.88172     +/-    12.04007     %    14.11165     +/-    13.65332     % 
   12.06588     +/-    15.62117     %    17.53733     +/-    19.01684     % 
   20.13567     +/-    15.14672     %    22.44699     +/-    19.69050     % 
   21.21501     +/-    17.29857     %    19.86820     +/-    12.39950     % 
   19.83869     +/-    13.21898     %    33.84732     +/-    13.82691     % 
   26.89516     +/-    11.43935     %    37.40352     +/-    15.13593     % 
   31.50818     +/-    18.38471     %    20.50587     +/-    25.54204     % 
   39.42542     +/-    26.62653     %    45.26369     +/-    19.01529     % 
   50.14091     +/-    15.03518     %    46.39928     +/-    17.04300     % 
   39.41266     +/-    9.760943     %    37.84682     +/-    10.98797     % 
   41.99745     +/-    13.04682     %    44.41906     +/-    15.52804     % 
   34.73534     +/-    16.73947     %    56.48412     +/-    20.76174     % 
   55.26896     +/-    7.935394     %    48.06121     +/-    9.482135     % 
   52.42552     +/-    12.71662     %    67.34671     +/-    11.68014     % 
   51.58844     +/-    12.71923     %    57.85966     +/-    13.37491     % 
   50.95213     +/-    10.26124     %    80.02558     +/-    8.711668     % 
   83.84987     +/-    7.672664     %    87.59946     +/-    8.797976     % 
   93.84685     +/-    11.37317     %    88.66770     +/-    11.16492     % 
   105.9685     +/-    9.917022     %    114.7791     +/-    7.572966     % 
   108.5082     +/-    9.079077     %    124.8630     +/-    14.25864     % 
   98.22395     +/-    16.83232     %    129.0664     +/-    15.76243     % 
   137.4502     +/-    7.362352     %    126.5937     +/-    7.311307     % 
   140.7797     +/-    7.328337     %    156.9045     +/-    7.507982     % 
   185.7994     +/-    13.58227     %    202.5367     +/-    10.96031     % 
   226.5676     +/-    6.845849     %    224.2776     +/-    6.579942     % 
   217.5510     +/-    6.947393     %    262.7652     +/-    6.086027     % 
   237.4246     +/-    7.807720     %    233.4241     +/-    9.967330     % 
   308.2289     +/-    9.667155     %    282.6348     +/-    10.08751     % 
   281.7269     +/-    10.98476     %    225.4648     +/-    7.631693     % 
   232.2970     +/-    8.391181     %    258.5038     +/-    10.96729     % 
   229.1169     +/-    8.223060     %    263.9156     +/-    11.60098     % 
   347.0120     +/-    8.372169     %    390.2099     +/-    12.19730     % 
   438.2566     +/-    7.414489     %    368.2817     +/-    10.57766     % 
   386.7672     +/-    12.43649     %    393.9274     +/-    10.51820     % 
   471.0216     +/-    9.277808     %    471.2441     +/-    10.18996     % 
   360.0156     +/-    11.58927     %    300.4900     +/-    12.02570     % 
   520.1081     +/-    6.820335     %    529.4559     +/-    9.868454     % 
   457.5636     +/-    7.356322     %    439.1494     +/-    8.942526     % 
   496.7930     +/-    7.729658     %    486.6942     +/-    9.535325     % 
   389.4131     +/-    8.116096     %    506.2141     +/-    10.23333     % 
   538.8689     +/-    7.622662     %    561.7501     +/-    16.21172     % 
   383.9399     +/-    11.58850     %    637.0601     +/-    13.63604     % 
   412.0195     +/-    12.71677     %    585.2508     +/-    9.731798     % 
   723.1733     +/-    13.38298     %    544.1035     +/-    9.187726     % 
   645.1153     +/-    10.07282     %    726.3377     +/-    8.245389     % 
   859.7972     +/-    10.16418     %    741.9650     +/-    8.239403     % 
   743.7930     +/-    6.592841     %    880.6518     +/-    6.187197     % 
   1001.500     +/-    5.777316     %    1130.395     +/-    5.677110     % 
   1195.974     +/-    7.263186     %    1143.207     +/-    9.506950     % 
   1838.529     +/-    20.47290     %    1237.539     +/-    6.939868     % 
   1553.798     +/-    8.448361     %    1590.773     +/-    6.278040     % 
   1862.611     +/-    13.30674     %    1916.007     +/-    11.96429     % 
   1663.469     +/-    15.53873     %    1823.032     +/-    9.303988     % 
   2196.186     +/-    18.05114     %    2544.604     +/-    9.107460     % 
   3223.295     +/-    9.665300     %    2602.614     +/-    12.16568     % 
   2911.064     +/-    13.87195     %    3142.450     +/-    12.10875     % 
   2731.747     +/-    15.33108     %    3437.614     +/-    8.379129     % 
   3322.950     +/-    6.702908     %    3949.084     +/-    11.73289     % 
   4580.140     +/-    6.727715     %    4915.307     +/-    6.495620     % 
   5460.873     +/-    7.783477     %    5584.856     +/-    7.222438     % 
   6876.013     +/-    7.660491     %    7966.920     +/-    7.139418     % 
   7862.223     +/-    6.867082     %    10338.94     +/-    8.271824     % 
   12070.88     +/-    10.56540     %    12033.05     +/-    7.971041     % 
   13811.88     +/-    9.146729     %    13323.78     +/-    10.29016     % 
   19287.88     +/-    9.045184     %    15688.37     +/-    7.593054     % 
   18365.15     +/-    7.659312     %    21295.78     +/-    9.110914     % 
   24595.76     +/-    10.35662     %    21826.48     +/-    9.690607     % 
   22257.03     +/-    9.526915     %    20854.86     +/-    8.175959     % 
   32017.87     +/-    7.702106     %    37736.23     +/-    8.514429     % 
   36744.36     +/-    6.949958     %    37866.51     +/-    8.265066     % 
   38563.94     +/-    9.994820     %    40066.44     +/-    7.122650     % 
   58277.88     +/-    8.837635     %    52547.20     +/-    4.578305     % 
   73606.98     +/-    5.640280     %    92077.44     +/-    5.028872     % 
   123267.7     +/-    4.837253     %    153579.8     +/-    4.869805     % 
   198358.9     +/-    5.263732     %    272200.8     +/-    5.256496     % 
   358430.4     +/-    4.742808     %    482017.4     +/-    4.766706     % 
   608972.1     +/-    4.779663     %    719968.1     +/-    4.859876     % 
   966939.7     +/-    4.365163     %    1244873.     +/-    4.638533     % 
   1668162.     +/-    4.846475     %    2081378.     +/-    4.381007     % 
   2596211.     +/-    4.718482     %    3651127.     +/-    4.767433     % 
   4883638.     +/-    8.204266     %    6217752.     +/-    4.121862     % 
   8797446.     +/-    5.240857     %   1.0749625E+07 +/-    4.896383     % 
  1.1810931E+07 +/-    4.636114     %   1.5987485E+07 +/-    4.495061     % 
  2.2170744E+07 +/-    6.355411     %   2.8565158E+07 +/-    5.105142     % 
  3.5158828E+07 +/-    4.363842     %   4.7859432E+07 +/-    4.371694     % 
  6.0125744E+07 +/-    5.359343     %   7.7267248E+07 +/-    4.826882     % 
  8.8554200E+07 +/-    9.981040     %   1.0708386E+08 +/-    4.989676     % 
  1.1661791E+08 +/-    6.290675     %   1.7263600E+08 +/-    11.61798     % 
  1.9305405E+08 +/-    4.917651     %   2.8782003E+08 +/-    3.665656     % 
  5.2505315E+08 +/-    3.035462     %   1.2997912E+09 +/-    2.740631     % 
  3.2824346E+09 +/-    2.514596     %   6.9700311E+09 +/-    2.292659     % 
  1.1092795E+10 +/-    2.221831     %   1.4154876E+10 +/-    2.849463     % 
  1.4601885E+10 +/-    2.897357     %   1.2487946E+10 +/-    2.780027     % 
  1.1267840E+10 +/-    5.332959     %   7.3866373E+09 +/-    4.242361     % 
  6.5001974E+09 +/-    6.995072     %   4.9550710E+09 +/-    13.52859     % 
  3.5001321E+09 +/-    15.85211     %   1.8292923E+09 +/-    13.63267     % 
  1.2279491E+09 +/-    22.34728     %   7.4029069E+08 +/-    24.94285     % 
  2.7712794E+08 +/-    48.66320     %   4.1142026E+08 +/-    65.96096     % 
  1.6382005E+08 +/-    94.78259     %   4.1174227E+08 +/-    94.78259     % 


  **** Cumulative Fluxes as a function of energy ****
  ****      (integrated over solid angle)        ****


  Energy boundaries (GeV):



  Lowest boundary   (GeV):  2.0000000E-02

  Cumul. Flux (Part/cmq/pr):



  Energy boundaries (GeV):

  2.0000000E-02  1.9640300E-02  1.9155400E-02  1.8682500E-02  1.8221200E-02
  1.7771300E-02  1.7332500E-02  1.6904600E-02  1.6487200E-02  1.6080100E-02
  1.5683100E-02  1.5295900E-02  1.4918300E-02  1.4549900E-02  1.4190700E-02
  1.3840300E-02  1.3498600E-02  1.3165300E-02  1.2840200E-02  1.2523200E-02
  1.2214000E-02  1.1912500E-02  1.1618300E-02  1.1331500E-02  1.1051700E-02
  1.0778800E-02  1.0512700E-02  1.0253200E-02  9.9999998E-03  9.7530996E-03
  9.5122904E-03  9.2774397E-03  9.0483697E-03  8.8249696E-03  8.6070802E-03
  8.3945701E-03  8.1873098E-03  7.9851598E-03  7.7880099E-03  7.5957198E-03
  7.4081798E-03  7.2252699E-03  7.0468802E-03  6.8728901E-03  6.7031998E-03
  6.6475999E-03  6.5923799E-03  6.5377001E-03  6.3762800E-03  6.2188501E-03
  6.0653100E-03  5.9155500E-03  5.7695000E-03  5.4881200E-03  5.2204598E-03
  4.9658502E-03  4.8432499E-03  4.7236700E-03  4.6070400E-03  4.4932901E-03
  4.2741499E-03  4.0656999E-03  3.8674099E-03  3.6787901E-03  3.4993801E-03
  3.3287101E-03  3.2465300E-03  3.1663701E-03  3.0881900E-03  3.0119400E-03
  2.8650500E-03  2.7253199E-03  2.5923999E-03  2.4659701E-03  2.4251300E-03
  2.3852000E-03  2.3652499E-03  2.3457000E-03  2.3068599E-03  2.2688799E-03
  2.2313001E-03  2.1224800E-03  2.0189700E-03  1.9691200E-03  1.9205000E-03
  1.8730800E-03  1.8268300E-03  1.7377400E-03  1.6529900E-03  1.6121800E-03
  1.5723699E-03  1.5335500E-03  1.4956900E-03  1.4227401E-03  1.3533500E-03
  1.2873500E-03  1.2245600E-03  1.1943300E-03  1.1648400E-03  1.1080300E-03
  1.0539900E-03  1.0025901E-03  9.7783399E-04  9.6163998E-04  9.5369201E-04
  9.0717903E-04  8.6293602E-04  8.2085002E-04  7.8081700E-04  7.4273598E-04
  7.0651202E-04  6.7205500E-04  6.3927902E-04  6.0810102E-04  5.7844300E-04
  5.5023201E-04  5.3664698E-04  5.2339700E-04  5.1047403E-04  4.9787102E-04
  4.7358900E-04  4.5049199E-04  4.2852099E-04  4.0762199E-04  3.8774201E-04
  3.6883200E-04  3.5084400E-04  3.3373301E-04  3.1745600E-04  3.0961799E-04
  3.0197401E-04  2.9451799E-04  2.8724599E-04  2.8015400E-04  2.7323700E-04
  2.5991100E-04  2.4723500E-04  2.3517800E-04  2.2370800E-04  2.1279699E-04
  2.0241900E-04  1.9254700E-04  1.8315599E-04  1.7422400E-04  1.6992200E-04
  1.6572700E-04  1.6163501E-04  1.5764400E-04  1.4995600E-04  1.4264201E-04
  1.3568600E-04  1.2906799E-04  1.2277300E-04  1.1678600E-04  1.1109000E-04
  9.8036500E-05  8.6516899E-05  7.6350902E-05  6.7379500E-05  6.2510902E-05
  5.9462200E-05  5.6562199E-05  5.2475199E-05  4.6309200E-05  4.0867701E-05
  3.6065601E-05  3.5175199E-05  3.4306700E-05  3.1827800E-05  2.8087899E-05
  2.6058400E-05  2.4787500E-05  2.4175501E-05  2.3578599E-05  2.1874899E-05
  2.1334799E-05  1.9304500E-05  1.7036200E-05  1.5034400E-05  1.3267800E-05
  1.1708800E-05  1.0333000E-05  9.1188203E-06  8.0473301E-06  7.1017398E-06
  6.2672698E-06  5.5308401E-06  5.0045101E-06  4.5282700E-06  4.3074201E-06
  4.0973500E-06  3.7074401E-06  3.3546301E-06  3.0353899E-06  2.8634900E-06
  2.7465401E-06  2.6125899E-06  2.4851699E-06  2.2486699E-06  2.0346799E-06
  1.8410600E-06  1.6658601E-06  1.5846100E-06  1.5073300E-06  1.3638900E-06
  1.2341000E-06  9.6111603E-07  7.4851800E-07  5.8294700E-07  4.5399901E-07
  3.5357499E-07  2.7536399E-07  2.1445400E-07  1.6701701E-07  1.3007300E-07
  1.0130100E-07  7.8893301E-08  6.1442101E-08  4.7851199E-08  3.7266499E-08
  2.9023200E-08  2.2603301E-08  1.7603501E-08  1.3709600E-08  1.0677000E-08
  8.3152898E-09  6.4759500E-09  5.0434799E-09  3.9278598E-09  3.0590199E-09
  2.3823701E-09  1.8553900E-09  1.4449800E-09  1.1253500E-09  8.7642499E-10
  8.3368101E-10  6.8256001E-10  6.2506200E-10  5.3157900E-10  4.1399401E-10
  2.8261499E-10  1.9292901E-10  1.3170399E-10  8.9908601E-11  6.1376598E-11
  4.1899099E-11  2.8602700E-11  1.9525799E-11  1.3329400E-11  9.0993801E-12
  6.2117499E-12  4.2404799E-12  2.8947901E-12  1.9761499E-12  1.3490300E-12
  9.2092198E-13  6.2867300E-13  4.2916701E-13  2.9297300E-13  2.0000000E-13
  Lowest boundary   (GeV):  1.0000100E-14


  Cumul. Flux (Part/cmq/pr):

  1.0378979E-03 +/-    48.98849     %   1.8472716E-03 +/-    29.74482     % 
  2.2764858E-03 +/-    24.65954     %   2.7695193E-03 +/-    20.98568     % 
  3.4030692E-03 +/-    17.42014     %   3.9763642E-03 +/-    15.26406     % 
  4.4312002E-03 +/-    14.85641     %   5.5386988E-03 +/-    13.03948     % 
  6.8056704E-03 +/-    13.76097     %   8.3218394E-03 +/-    15.80543     % 
  9.0962416E-03 +/-    14.72030     %   9.9378135E-03 +/-    13.81701     % 
  1.0613902E-02 +/-    13.19729     %   1.1142281E-02 +/-    12.59284     % 
  1.1808881E-02 +/-    12.08232     %   1.2274217E-02 +/-    11.61190     % 
  1.3022336E-02 +/-    11.11023     %   1.3503676E-02 +/-    10.74222     % 
  1.4964390E-02 +/-    10.14481     %   1.5556878E-02 +/-    9.768359     % 
  1.6409453E-02 +/-    9.362955     %   1.6899435E-02 +/-    9.166482     % 
  1.7461313E-02 +/-    8.967068     %   1.8232072E-02 +/-    8.635569     % 
  2.0251771E-02 +/-    13.16008     %   2.0928698E-02 +/-    12.75720     % 
  2.1170853E-02 +/-    12.60655     %   2.2124141E-02 +/-    12.11708     % 
  2.2876026E-02 +/-    11.73331     %   2.3619104E-02 +/-    11.47550     % 
  2.4200188E-02 +/-    11.21084     %   2.5087984E-02 +/-    10.97879     % 
  2.6004327E-02 +/-    10.59788     %   2.6704382E-02 +/-    10.34001     % 
  2.7882604E-02 +/-    9.908920     %   2.8495319E-02 +/-    9.700554     % 
  2.9239483E-02 +/-    9.591352     %   3.0083703E-02 +/-    9.462008     % 
  3.0786293E-02 +/-    9.259059     %   3.1914078E-02 +/-    8.949765     % 
  3.2644629E-02 +/-    8.765759     %   3.4266394E-02 +/-    8.450456     % 
  3.5514776E-02 +/-    8.162910     %   3.6271889E-02 +/-    8.005179     % 
  3.6493570E-02 +/-    7.955211     %   3.7091322E-02 +/-    7.899787     % 
  3.7413098E-02 +/-    7.845309     %   3.8099915E-02 +/-    7.704226     % 
  3.8879786E-02 +/-    7.576604     %   4.0242098E-02 +/-    7.560039     % 
  4.1525390E-02 +/-    7.355024     %   4.2678688E-02 +/-    7.257530     % 
  4.4602104E-02 +/-    6.985175     %   4.7033142E-02 +/-    6.714301     % 
  4.8872944E-02 +/-    6.468660     %   4.9742717E-02 +/-    6.367651     % 
  5.1047526E-02 +/-    6.220186     %   5.2656550E-02 +/-    6.056087     % 
  5.4015327E-02 +/-    5.926985     %   5.6076832E-02 +/-    5.756823     % 
  5.8501586E-02 +/-    5.512235     %   6.0802490E-02 +/-    5.331959     % 
  6.3232236E-02 +/-    5.145730     %   6.5764010E-02 +/-    4.948936     % 
  6.7823291E-02 +/-    4.821043     %   6.9264509E-02 +/-    4.753417     % 
  7.0878588E-02 +/-    4.652970     %   7.2633490E-02 +/-    4.586637     % 
  7.4251138E-02 +/-    4.539702     %   7.7169575E-02 +/-    4.476604     % 
  7.9941638E-02 +/-    4.382820     %   8.4440626E-02 +/-    4.280550     % 
  8.7840974E-02 +/-    4.155831     %   8.9368537E-02 +/-    4.105038     % 
  9.0626657E-02 +/-    4.069656     %   9.1035753E-02 +/-    4.050388     % 
  9.1806516E-02 +/-    4.036718     %   9.3564562E-02 +/-    4.007826     % 
  9.5468916E-02 +/-    3.952190     %   9.7212590E-02 +/-    3.925524     % 
  0.1015015     +/-    3.817595     %   0.1054190     +/-    3.771244     % 
  0.1075126     +/-    3.750645     %   0.1096722     +/-    3.703610     % 
  0.1113194     +/-    3.672949     %   0.1139318     +/-    3.670977     % 
  0.1188557     +/-    3.569594     %   0.1229289     +/-    3.510254     % 
  0.1250684     +/-    3.483610     %   0.1277494     +/-    3.430913     % 
  0.1297521     +/-    3.387013     %   0.1319427     +/-    3.345583     % 
  0.1356596     +/-    3.291173     %   0.1412126     +/-    3.200280     % 
  0.1467467     +/-    3.121012     %   0.1522471     +/-    3.069144     % 
  0.1550840     +/-    3.058885     %   0.1576989     +/-    3.053551     % 
  0.1637189     +/-    2.984502     %   0.1699216     +/-    2.893824     % 
  0.1754989     +/-    2.877380     %   0.1785900     +/-    2.861059     % 
  0.1801807     +/-    2.851958     %   0.1812065     +/-    2.838715     % 
  0.1875997     +/-    2.787246     %   0.1932006     +/-    2.742209     % 
  0.1991254     +/-    2.702410     %   0.2054068     +/-    2.644475     % 
  0.2124822     +/-    2.619109     %   0.2198189     +/-    2.601450     % 
  0.2276258     +/-    2.558093     %   0.2349767     +/-    2.519130     % 
  0.2417595     +/-    2.500329     %   0.2495526     +/-    2.497887     % 
  0.2562506     +/-    2.466427     %   0.2594216     +/-    2.475707     % 
  0.2635057     +/-    2.450078     %   0.2671582     +/-    2.451452     % 
  0.2707087     +/-    2.428535     %   0.2761835     +/-    2.402713     % 
  0.2815489     +/-    2.391296     %   0.2872284     +/-    2.399843     % 
  0.2920167     +/-    2.371266     %   0.2972634     +/-    2.364415     % 
  0.3038254     +/-    2.358422     %   0.3108445     +/-    2.354345     % 
  0.3183435     +/-    2.321872     %   0.3243380     +/-    2.319279     % 
  0.3273695     +/-    2.311391     %   0.3303807     +/-    2.305192     % 
  0.3338926     +/-    2.295950     %   0.3373195     +/-    2.297420     % 
  0.3398727     +/-    2.282428     %   0.3419512     +/-    2.271049     % 
  0.3488822     +/-    2.256356     %   0.3555936     +/-    2.237902     % 
  0.3611104     +/-    2.220123     %   0.3661475     +/-    2.204478     % 
  0.3715680     +/-    2.191724     %   0.3766189     +/-    2.179170     % 
  0.3804632     +/-    2.178873     %   0.3852170     +/-    2.166970     % 
  0.3900302     +/-    2.166874     %   0.3924468     +/-    2.158255     % 
  0.3940575     +/-    2.155592     %   0.3966643     +/-    2.142491     % 
  0.3983087     +/-    2.140017     %   0.4028081     +/-    2.135502     % 
  0.4080974     +/-    2.123707     %   0.4118822     +/-    2.116180     % 
  0.4161516     +/-    2.107601     %   0.4207239     +/-    2.104331     % 
  0.4258714     +/-    2.089985     %   0.4300977     +/-    2.090115     % 
  0.4398068     +/-    2.074485     %   0.4499515     +/-    2.056102     % 
  0.4601328     +/-    2.057461     %   0.4702740     +/-    2.041653     % 
  0.4760967     +/-    2.030336     %   0.4795820     +/-    2.026917     % 
  0.4849138     +/-    2.039587     %   0.4899716     +/-    2.022171     % 
  0.4995523     +/-    2.003315     %   0.5082085     +/-    1.999871     % 
  0.5171529     +/-    1.997767     %   0.5188590     +/-    1.998103     % 
  0.5203037     +/-    1.994093     %   0.5248228     +/-    1.995506     % 
  0.5330363     +/-    2.039101     %   0.5382006     +/-    2.037910     % 
  0.5422971     +/-    2.040064     %   0.5438898     +/-    2.040771     % 
  0.5456275     +/-    2.038240     %   0.5509813     +/-    2.054626     % 
  0.5524567     +/-    2.052079     %   0.5594361     +/-    2.038467     % 
  0.5669735     +/-    2.032034     %   0.5748788     +/-    2.015824     % 
  0.5829701     +/-    2.003237     %   0.5906330     +/-    2.000871     % 
  0.5981461     +/-    1.996134     %   0.6049271     +/-    1.997558     % 
  0.6122947     +/-    1.984785     %   0.6198282     +/-    1.966822     % 
  0.6263889     +/-    1.958537     %   0.6340028     +/-    1.948239     % 
  0.6403561     +/-    1.935927     %   0.6460867     +/-    1.933360     % 
  0.6491371     +/-    1.936660     %   0.6519360     +/-    1.933608     % 
  0.6594566     +/-    1.931564     %   0.6649916     +/-    1.926160     % 
  0.6708544     +/-    1.922765     %   0.6745152     +/-    1.923699     % 
  0.6773916     +/-    1.920641     %   0.6803153     +/-    1.917932     % 
  0.6831513     +/-    1.918028     %   0.6880835     +/-    1.913446     % 
  0.6949350     +/-    1.904276     %   0.7022415     +/-    1.901790     % 
  0.7086791     +/-    1.895805     %   0.7117558     +/-    1.893503     % 
  0.7147359     +/-    1.889061     %   0.7204831     +/-    1.884946     % 
  0.7280470     +/-    1.878780     %   0.7423915     +/-    1.868220     % 
  0.7580402     +/-    1.870941     %   0.7732856     +/-    1.867059     % 
  0.7891807     +/-    1.850431     %   0.8046038     +/-    1.843657     % 
  0.8201177     +/-    1.832416     %   0.8366974     +/-    1.828683     % 
  0.8537002     +/-    1.821879     %   0.8715079     +/-    1.803601     % 
  0.8890293     +/-    1.788944     %   0.9051621     +/-    1.777108     % 
  0.9220363     +/-    1.760555     %   0.9389553     +/-    1.747039     % 
  0.9566123     +/-    1.735818     %   0.9737697     +/-    1.721102     % 
  0.9904371     +/-    1.717135     %    1.008692     +/-    1.707475     % 
   1.027708     +/-    1.692292     %    1.046564     +/-    1.674983     % 
   1.067341     +/-    1.669883     %    1.087114     +/-    1.657502     % 
   1.104032     +/-    1.648429     %    1.121868     +/-    1.640032     % 
   1.141131     +/-    1.642273     %    1.160460     +/-    1.640952     % 
   1.178988     +/-    1.639940     %    1.198630     +/-    1.623461     % 
   1.217848     +/-    1.621901     %    1.237082     +/-    1.613825     % 
   1.240867     +/-    1.611377     %    1.257049     +/-    1.603391     % 
   1.263755     +/-    1.601614     %    1.279893     +/-    1.599971     % 
   1.302593     +/-    1.595210     %    1.340407     +/-    1.581704     % 
   1.387497     +/-    1.567222     %    1.467077     +/-    1.530768     % 
   1.604267     +/-    1.486631     %    1.803136     +/-    1.443370     % 
   2.019196     +/-    1.411536     %    2.207405     +/-    1.402666     % 
   2.339945     +/-    1.415193     %    2.417325     +/-    1.411074     % 
   2.464988     +/-    1.405800     %    2.486318     +/-    1.407442     % 
   2.499132     +/-    1.406645     %    2.505800     +/-    1.408741     % 
   2.509015     +/-    1.408304     %    2.510162     +/-    1.408465     % 
   2.510688     +/-    1.408548     %    2.510904     +/-    1.408373     % 
   2.510960     +/-    1.408280     %    2.511016     +/-    1.408681     % 
   2.511031     +/-    1.408644     %    2.511109     +/-    1.408609     % 

  Detector n:  2  ME11_Nhi  
     (Volume:         1. cmc,
      distr. scored: 8   ,
      from reg. 242 )

     Tot. response (p/cmq/pr)  9.3535513E-02  +/-   3.931661     %
     ( --> Track l. (cm/pr)      9.3535513E-02  +/-   3.931661     % )

  **** Different. Fluxes as a function of energy ****
  ****      (integrated over solid angle)        ****


  Energy boundaries (GeV):

   99.99994       91.83538       84.33743       77.45164       71.12806    
   65.32076       59.98761       55.08988       50.59204       46.46142    
   42.66805       39.18439       35.98515       33.04712       30.34897    
   27.87111       25.59556       23.50579       21.58665       19.82419    
   18.20563       16.71922       15.35417       14.10057       12.94932    
   11.89207       10.92113       10.02947       9.210606       8.458600    
   7.767992       7.133770       6.551329       6.016442       5.525226    
   5.074115       4.659836       4.279381       3.929988       3.609122    
   3.314453       3.043842       2.795326       2.567100       2.357507    
   2.165027       1.988262       1.825929       1.676850       1.539943    
   1.414213       1.298749       1.192712       1.095332       1.005903    
  0.9237754      0.8483531      0.7790889      0.7154796      0.6570638    
  0.6034175      0.5541511      0.5089071      0.4673570      0.4291994    
  0.3941571      0.3619759      0.3324222      0.3052814      0.2803565    
  0.2574666      0.2364456      0.2171408      0.1994122      0.1831311    
  0.1681793      0.1544482      0.1418381      0.1302577      0.1196227    
  0.1098560      0.1008868      9.2649810E-02  8.5085362E-02  7.8138515E-02
  7.1758844E-02  6.5900050E-02  6.0519602E-02  5.5578440E-02  5.1040705E-02
  4.6873454E-02  4.3046441E-02  3.9531890E-02  3.6304284E-02  3.3340197E-02
  3.0618116E-02  2.8118281E-02  2.5822546E-02  2.3714250E-02  2.1778084E-02
  Lowest boundary   (GeV):  2.0000000E-02

  Flux (Part/GeV/cmq/pr):

   0.000000     +/-    0.000000     %    0.000000     +/-    0.000000     % 
   0.000000     +/-    0.000000     %    0.000000     +/-    0.000000     % 
   0.000000     +/-    0.000000     %    0.000000     +/-    0.000000     % 
   0.000000     +/-    0.000000     %    0.000000     +/-    0.000000     % 
   0.000000     +/-    0.000000     %    0.000000     +/-    0.000000     % 
   0.000000     +/-    0.000000     %    0.000000     +/-    0.000000     % 
   0.000000     +/-    0.000000     %    0.000000     +/-    0.000000     % 
   0.000000     +/-    0.000000     %    0.000000     +/-    0.000000     % 
   0.000000     +/-    0.000000     %    0.000000     +/-    0.000000     % 
   0.000000     +/-    0.000000     %    0.000000     +/-    0.000000     % 
   0.000000     +/-    0.000000     %    0.000000     +/-    0.000000     % 
   0.000000     +/-    0.000000     %    0.000000     +/-    0.000000     % 
   0.000000     +/-    0.000000     %    0.000000     +/-    0.000000     % 
   0.000000     +/-    0.000000     %    0.000000     +/-    0.000000     % 
   0.000000     +/-    0.000000     %    0.000000     +/-    0.000000     % 
   0.000000     +/-    0.000000     %    0.000000     +/-    0.000000     % 
   0.000000     +/-    0.000000     %    0.000000     +/-    0.000000     % 
   0.000000     +/-    0.000000     %    0.000000     +/-    0.000000     % 
   0.000000     +/-    0.000000     %    0.000000     +/-    0.000000     % 
   0.000000     +/-    0.000000     %    0.000000     +/-    0.000000     % 
   0.000000     +/-    0.000000     %    0.000000     +/-    0.000000     % 
   0.000000     +/-    0.000000     %    0.000000     +/-    0.000000     % 
   0.000000     +/-    0.000000     %    0.000000     +/-    0.000000     % 
   0.000000     +/-    0.000000     %    0.000000     +/-    0.000000     % 
   0.000000     +/-    0.000000     %   1.4944660E-04 +/-    94.78259     % 
   0.000000     +/-    0.000000     %   1.9174641E-04 +/-    94.78259     % 
   0.000000     +/-    0.000000     %   6.8105140E-04 +/-    54.69296     % 
  2.7925329E-04 +/-    94.78259     %    0.000000     +/-    0.000000     % 
   0.000000     +/-    0.000000     %    0.000000     +/-    0.000000     % 
  1.1337224E-03 +/-    66.73727     %   4.6216921E-04 +/-    94.78259     % 
  1.1506279E-03 +/-    78.57477     %   9.3949918E-04 +/-    66.87765     % 
  3.8519024E-03 +/-    51.27870     %   1.0762297E-02 +/-    63.97141     % 
  3.6285562E-03 +/-    48.58380     %   5.4642381E-03 +/-    40.00407     % 
  2.1567198E-02 +/-    33.94865     %   7.2036069E-03 +/-    38.59420     % 
  2.3983289E-02 +/-    22.35181     %   3.0461119E-02 +/-    24.69562     % 
  4.8753135E-02 +/-    19.77419     %   3.5724003E-02 +/-    22.27962     % 
  6.8788990E-02 +/-    28.93327     %   7.2838292E-02 +/-    18.24355     % 
  0.1152503     +/-    19.51458     %   0.1278072     +/-    25.73440     % 
  0.1989887     +/-    14.24536     %   0.4845995     +/-    32.16352     % 
  0.3151239     +/-    15.30651     %   0.3339201     +/-    18.78836     % 
  0.2654356     +/-    12.68430     %   0.4144858     +/-    13.98407     % 
  0.3906438     +/-    14.59326     %   0.5777548     +/-    12.95602     % 
  0.4807275     +/-    15.40911     %   0.5028417     +/-    18.23731     % 
  0.8027130     +/-    16.93354     %   0.8952879     +/-    15.26610     % 
  0.8759986     +/-    15.74987     %   0.8469930     +/-    17.20427     % 
  0.9157332     +/-    16.06042     %   0.9229473     +/-    16.04404     % 
   1.262140     +/-    16.28272     %    1.139822     +/-    12.86782     % 
   1.483674     +/-    13.20086     %    1.164074     +/-    13.19985     % 
   1.461142     +/-    20.09716     %    1.030787     +/-    15.72783     % 
   1.291731     +/-    15.46450     %    2.073772     +/-    20.41020     % 


  **** Cumulative Fluxes as a function of energy ****
  ****      (integrated over solid angle)        ****


  Energy boundaries (GeV):


   99.99994       91.83538       84.33743       77.45164       71.12806    
   65.32076       59.98761       55.08988       50.59204       46.46142    
   42.66805       39.18439       35.98515       33.04712       30.34897    
   27.87111       25.59556       23.50579       21.58665       19.82419    
   18.20563       16.71922       15.35417       14.10057       12.94932    
   11.89207       10.92113       10.02947       9.210606       8.458600    
   7.767992       7.133770       6.551329       6.016442       5.525226    
   5.074115       4.659836       4.279381       3.929988       3.609122    
   3.314453       3.043842       2.795326       2.567100       2.357507    
   2.165027       1.988262       1.825929       1.676850       1.539943    
   1.414213       1.298749       1.192712       1.095332       1.005903    
  0.9237754      0.8483531      0.7790889      0.7154796      0.6570638    
  0.6034175      0.5541511      0.5089071      0.4673570      0.4291994    
  0.3941571      0.3619759      0.3324222      0.3052814      0.2803565    
  0.2574666      0.2364456      0.2171408      0.1994122      0.1831311    
  0.1681793      0.1544482      0.1418381      0.1302577      0.1196227    
  0.1098560      0.1008868      9.2649810E-02  8.5085362E-02  7.8138515E-02
  7.1758844E-02  6.5900050E-02  6.0519602E-02  5.5578440E-02  5.1040705E-02
  4.6873454E-02  4.3046441E-02  3.9531890E-02  3.6304284E-02  3.3340197E-02
  3.0618116E-02  2.8118281E-02  2.5822546E-02  2.3714250E-02  2.1778084E-02
  Lowest boundary   (GeV):  2.0000000E-02

  Cumul. Flux (Part/cmq/pr):

   0.000000     +/-    0.000000     %    0.000000     +/-    0.000000     % 
   0.000000     +/-    0.000000     %    0.000000     +/-    0.000000     % 
   0.000000     +/-    0.000000     %    0.000000     +/-    0.000000     % 
   0.000000     +/-    0.000000     %    0.000000     +/-    0.000000     % 
   0.000000     +/-    0.000000     %    0.000000     +/-    0.000000     % 
   0.000000     +/-    0.000000     %    0.000000     +/-    0.000000     % 
   0.000000     +/-    0.000000     %    0.000000     +/-    0.000000     % 
   0.000000     +/-    0.000000     %    0.000000     +/-    0.000000     % 
   0.000000     +/-    0.000000     %    0.000000     +/-    0.000000     % 
   0.000000     +/-    0.000000     %    0.000000     +/-    0.000000     % 
   0.000000     +/-    0.000000     %    0.000000     +/-    0.000000     % 
   0.000000     +/-    0.000000     %    0.000000     +/-    0.000000     % 
   0.000000     +/-    0.000000     %    0.000000     +/-    0.000000     % 
   0.000000     +/-    0.000000     %    0.000000     +/-    0.000000     % 
   0.000000     +/-    0.000000     %    0.000000     +/-    0.000000     % 
   0.000000     +/-    0.000000     %    0.000000     +/-    0.000000     % 
   0.000000     +/-    0.000000     %    0.000000     +/-    0.000000     % 
   0.000000     +/-    0.000000     %    0.000000     +/-    0.000000     % 
   0.000000     +/-    0.000000     %    0.000000     +/-    0.000000     % 
   0.000000     +/-    0.000000     %    0.000000     +/-    0.000000     % 
   0.000000     +/-    0.000000     %    0.000000     +/-    0.000000     % 
   0.000000     +/-    0.000000     %    0.000000     +/-    0.000000     % 
   0.000000     +/-    0.000000     %    0.000000     +/-    0.000000     % 
   0.000000     +/-    0.000000     %    0.000000     +/-    0.000000     % 
   0.000000     +/-    0.000000     %   1.8789864E-05 +/-    94.78259     % 
  1.8789864E-05 +/-    94.78259     %   3.9122100E-05 +/-    66.92203     % 
  3.9122100E-05 +/-    66.92203     %   1.0002791E-04 +/-    42.12758     % 
  1.2296230E-04 +/-    38.40095     %   1.2296230E-04 +/-    38.40095     % 
  1.2296230E-04 +/-    38.40095     %   1.2296230E-04 +/-    38.40095     % 
  1.8918960E-04 +/-    33.91464     %   2.1398331E-04 +/-    31.80225     % 
  2.7067063E-04 +/-    29.82372     %   3.1317733E-04 +/-    27.15235     % 
  4.7322403E-04 +/-    24.60626     %   8.8388793E-04 +/-    32.86172     % 
  1.0110406E-03 +/-    29.21889     %   1.1868865E-03 +/-    25.38453     % 
  1.8242778E-03 +/-    20.02714     %   2.0197895E-03 +/-    18.52237     % 
  2.6175701E-03 +/-    15.00857     %   3.3148213E-03 +/-    12.88350     % 
  4.3396619E-03 +/-    10.73103     %   5.0293044E-03 +/-    9.619629     % 
  6.2488373E-03 +/-    9.431095     %   7.4347267E-03 +/-    8.739315     % 
  9.1579314E-03 +/-    8.134589     %   1.0912865E-02 +/-    8.331654     % 
  1.3422118E-02 +/-    7.256551     %   1.9034002E-02 +/-    11.12125     % 
  2.2385335E-02 +/-    9.803066     %   2.5646623E-02 +/-    8.815464     % 
  2.8027384E-02 +/-    8.090082     %   3.1441487E-02 +/-    7.402778     % 
  3.4396496E-02 +/-    6.853218     %   3.8410068E-02 +/-    6.212437     % 
  4.1476950E-02 +/-    5.838249     %   4.4422999E-02 +/-    5.715916     % 
  4.8741955E-02 +/-    5.379542     %   5.3165715E-02 +/-    5.142193     % 
  5.7140764E-02 +/-    4.978193     %   6.0670394E-02 +/-    4.868198     % 
  6.4174920E-02 +/-    4.753169     %   6.7418665E-02 +/-    4.675141     % 
  7.1492359E-02 +/-    4.482601     %   7.4870884E-02 +/-    4.268992     % 
  7.8909568E-02 +/-    4.137319     %   8.1819564E-02 +/-    4.020256     % 
  8.5173957E-02 +/-    4.056225     %   8.7347165E-02 +/-    4.004669     % 
  8.9848168E-02 +/-    3.934604     %   9.3535513E-02 +/-    3.931660     % 

  Detector n:  3  ME11_ph   
     (Volume:         1. cmc,
      distr. scored: 7   ,
      from reg. 242 )

     Tot. response (p/cmq/pr)   1.508761      +/-   1.505499     %
     ( --> Track l. (cm/pr)       1.508761      +/-   1.505499     % )

  **** Different. Fluxes as a function of energy ****
  ****      (integrated over solid angle)        ****


  Energy boundaries (GeV):

   99.99997       85.11378       72.44357       61.65948       52.48073    
   44.66835       38.01893       32.35936       27.54228       23.44228    
   19.95262       16.98243       14.45439       12.30268       10.47128    
   8.912507       7.585774       6.456541       5.495407       4.677350    
   3.981071       3.388441       2.884031       2.454708       2.089296    
   1.778279       1.513561       1.288249       1.096478      0.9332541    
  0.7943280      0.6760828      0.5754398      0.4897787      0.4168693    
  0.3548133      0.3019951      0.2570395      0.2187761      0.1862087    
  0.1584893      0.1348963      0.1148153      9.7723700E-02  8.3176360E-02
  7.0794567E-02  6.0255948E-02  5.1286127E-02  4.3651577E-02  3.7153516E-02
  3.1622771E-02  2.6915343E-02  2.2908673E-02  1.9498443E-02  1.6595867E-02
  1.4125373E-02  1.2022642E-02  1.0232928E-02  8.7096347E-03  7.4131014E-03
  6.3095726E-03  5.3703170E-03  4.5708814E-03  3.8904510E-03  3.3113109E-03
  2.8183826E-03  2.3988327E-03  2.0417378E-03  1.7378007E-03  1.4791082E-03
  1.2589253E-03  1.0715192E-03  9.1201073E-04  7.7624706E-04  6.6069339E-04
  5.6234124E-04  4.7863004E-04  4.0738023E-04  3.4673681E-04  2.9512090E-04
  2.5118861E-04  2.1379619E-04  1.8197007E-04  1.5488165E-04  1.3182567E-04
  1.1220184E-04  9.5499250E-05  8.1283048E-05  6.9183094E-05  5.8884361E-05
  5.0118721E-05  4.2657950E-05  3.6307803E-05  3.0902953E-05  2.6302680E-05
  2.2387210E-05  1.9054607E-05  1.6218100E-05  1.3803842E-05  1.1748975E-05
  Lowest boundary   (GeV):  9.9999997E-06

  Flux (Part/GeV/cmq/pr):

   0.000000     +/-    0.000000     %    0.000000     +/-    0.000000     % 
   0.000000     +/-    0.000000     %    0.000000     +/-    0.000000     % 
   0.000000     +/-    0.000000     %    0.000000     +/-    0.000000     % 
   0.000000     +/-    0.000000     %    0.000000     +/-    0.000000     % 
   0.000000     +/-    0.000000     %    0.000000     +/-    0.000000     % 
   0.000000     +/-    0.000000     %    0.000000     +/-    0.000000     % 
   0.000000     +/-    0.000000     %    0.000000     +/-    0.000000     % 
   0.000000     +/-    0.000000     %    0.000000     +/-    0.000000     % 
   0.000000     +/-    0.000000     %    0.000000     +/-    0.000000     % 
   0.000000     +/-    0.000000     %    0.000000     +/-    0.000000     % 
   0.000000     +/-    0.000000     %    0.000000     +/-    0.000000     % 
   0.000000     +/-    0.000000     %    0.000000     +/-    0.000000     % 
   0.000000     +/-    0.000000     %    0.000000     +/-    0.000000     % 
   0.000000     +/-    0.000000     %    0.000000     +/-    0.000000     % 
   0.000000     +/-    0.000000     %    0.000000     +/-    0.000000     % 
   0.000000     +/-    0.000000     %    0.000000     +/-    0.000000     % 
   0.000000     +/-    0.000000     %    0.000000     +/-    0.000000     % 
   0.000000     +/-    0.000000     %   3.6722867E-04 +/-    99.00000     % 
  5.4406171E-04 +/-    99.00000     %    0.000000     +/-    0.000000     % 
   0.000000     +/-    0.000000     %   2.1096140E-03 +/-    71.47344     % 
  1.0625973E-03 +/-    94.78259     %   4.1127717E-03 +/-    94.78259     % 
  4.0244558E-03 +/-    87.24818     %   1.2676901E-03 +/-    94.78259     % 
   0.000000     +/-    0.000000     %   5.2623837E-03 +/-    54.47725     % 
  6.8720249E-03 +/-    54.62317     %   1.3106988E-02 +/-    49.79367     % 
  1.0326994E-02 +/-    56.02825     %   2.1556215E-02 +/-    52.94752     % 
  7.9539008E-03 +/-    66.88313     %   2.4913605E-02 +/-    70.51534     % 
  2.8139319E-02 +/-    48.48417     %   0.1136752     +/-    36.09236     % 
  0.2660832     +/-    40.60620     %   0.1853586     +/-    28.71366     % 
  0.4252725     +/-    24.24913     %    9.460198     +/-    7.298570     % 
   47.42743     +/-    3.431898     %    23.51496     +/-    5.709440     % 
   28.59958     +/-    4.538618     %    34.22498     +/-    4.791953     % 
   48.65933     +/-    4.543765     %    50.69429     +/-    4.897819     % 
   54.65574     +/-    4.915150     %    102.5753     +/-    5.036600     % 
   239.4223     +/-    4.311673     %    121.0552     +/-    4.327367     % 
   113.5722     +/-    5.321793     %    132.2662     +/-    4.398406     % 
   157.5923     +/-    5.061380     %    208.5548     +/-    4.591222     % 
   267.1931     +/-    4.401095     %    281.4410     +/-    5.420015     % 
   301.0220     +/-    4.345065     %    966.1622     +/-    2.892709     % 
   877.6166     +/-    3.758548     %    887.2788     +/-    3.361099     % 
   1138.349     +/-    3.315867     %    1338.519     +/-    3.421150     % 
   1804.450     +/-    3.714129     %    2215.137     +/-    2.952321     % 
   2657.769     +/-    3.208580     %    2883.126     +/-    3.389206     % 
   3364.754     +/-    3.536148     %    3492.112     +/-    3.483058     % 
   3570.335     +/-    3.337357     %    3260.394     +/-    4.205007     % 
   3022.455     +/-    4.490632     %    2062.831     +/-    5.371395     % 
   1351.510     +/-    8.078721     %    741.6660     +/-    10.89433     % 
   430.3675     +/-    20.92056     %    244.5882     +/-    24.34696     % 
   171.0564     +/-    42.20178     %    115.6145     +/-    36.79300     % 
   146.7075     +/-    39.09846     %    121.2888     +/-    38.21162     % 
   39.29373     +/-    41.77978     %    53.60656     +/-    53.06503     % 


  **** Cumulative Fluxes as a function of energy ****
  ****      (integrated over solid angle)        ****


  Energy boundaries (GeV):


   99.99997       85.11378       72.44357       61.65948       52.48073    
   44.66835       38.01893       32.35936       27.54228       23.44228    
   19.95262       16.98243       14.45439       12.30268       10.47128    
   8.912507       7.585774       6.456541       5.495407       4.677350    
   3.981071       3.388441       2.884031       2.454708       2.089296    
   1.778279       1.513561       1.288249       1.096478      0.9332541    
  0.7943280      0.6760828      0.5754398      0.4897787      0.4168693    
  0.3548133      0.3019951      0.2570395      0.2187761      0.1862087    
  0.1584893      0.1348963      0.1148153      9.7723700E-02  8.3176360E-02
  7.0794567E-02  6.0255948E-02  5.1286127E-02  4.3651577E-02  3.7153516E-02
  3.1622771E-02  2.6915343E-02  2.2908673E-02  1.9498443E-02  1.6595867E-02
  1.4125373E-02  1.2022642E-02  1.0232928E-02  8.7096347E-03  7.4131014E-03
  6.3095726E-03  5.3703170E-03  4.5708814E-03  3.8904510E-03  3.3113109E-03
  2.8183826E-03  2.3988327E-03  2.0417378E-03  1.7378007E-03  1.4791082E-03
  1.2589253E-03  1.0715192E-03  9.1201073E-04  7.7624706E-04  6.6069339E-04
  5.6234124E-04  4.7863004E-04  4.0738023E-04  3.4673681E-04  2.9512090E-04
  2.5118861E-04  2.1379619E-04  1.8197007E-04  1.5488165E-04  1.3182567E-04
  1.1220184E-04  9.5499250E-05  8.1283048E-05  6.9183094E-05  5.8884361E-05
  5.0118721E-05  4.2657950E-05  3.6307803E-05  3.0902953E-05  2.6302680E-05
  2.2387210E-05  1.9054607E-05  1.6218100E-05  1.3803842E-05  1.1748975E-05
  Lowest boundary   (GeV):  9.9999997E-06

  Cumul. Flux (Part/cmq/pr):

   0.000000     +/-    0.000000     %    0.000000     +/-    0.000000     % 
   0.000000     +/-    0.000000     %    0.000000     +/-    0.000000     % 
   0.000000     +/-    0.000000     %    0.000000     +/-    0.000000     % 
   0.000000     +/-    0.000000     %    0.000000     +/-    0.000000     % 
   0.000000     +/-    0.000000     %    0.000000     +/-    0.000000     % 
   0.000000     +/-    0.000000     %    0.000000     +/-    0.000000     % 
   0.000000     +/-    0.000000     %    0.000000     +/-    0.000000     % 
   0.000000     +/-    0.000000     %    0.000000     +/-    0.000000     % 
   0.000000     +/-    0.000000     %    0.000000     +/-    0.000000     % 
   0.000000     +/-    0.000000     %    0.000000     +/-    0.000000     % 
   0.000000     +/-    0.000000     %    0.000000     +/-    0.000000     % 
   0.000000     +/-    0.000000     %    0.000000     +/-    0.000000     % 
   0.000000     +/-    0.000000     %    0.000000     +/-    0.000000     % 
   0.000000     +/-    0.000000     %    0.000000     +/-    0.000000     % 
   0.000000     +/-    0.000000     %    0.000000     +/-    0.000000     % 
   0.000000     +/-    0.000000     %    0.000000     +/-    0.000000     % 
   0.000000     +/-    0.000000     %    0.000000     +/-    0.000000     % 
   0.000000     +/-    0.000000     %   1.9396364E-05 +/-    99.00000     % 
  4.3854980E-05 +/-    99.00000     %   4.3854980E-05 +/-    99.00000     % 
  4.3854980E-05 +/-    99.00000     %   1.0233219E-04 +/-    70.39613     % 
  1.2740208E-04 +/-    59.43238     %   2.0999032E-04 +/-    51.67581     % 
  2.7877488E-04 +/-    44.31149     %   2.9721641E-04 +/-    41.91970     % 
  2.9721641E-04 +/-    41.91970     %   3.5267463E-04 +/-    36.86781     % 
  4.1431547E-04 +/-    33.36312     %   5.1438145E-04 +/-    29.54787     % 
  5.8148685E-04 +/-    28.70035     %   7.0070883E-04 +/-    29.03379     % 
  7.3815120E-04 +/-    29.27576     %   8.3797186E-04 +/-    27.86222     % 
  9.3393336E-04 +/-    26.49342     %   1.2638844E-03 +/-    24.13655     % 
  1.9212409E-03 +/-    22.38300     %   2.3110001E-03 +/-    20.62606     % 
  3.0721163E-03 +/-    16.87064     %   1.7482778E-02 +/-    6.653177     % 
  7.8974023E-02 +/-    3.092902     %   0.1049235     +/-    2.768924     % 
  0.1317858     +/-    2.464575     %   0.1591464     +/-    2.236260     % 
  0.1922557     +/-    2.177839     %   0.2216148     +/-    2.117924     % 
  0.2485562     +/-    2.072445     %   0.2915916     +/-    2.011701     % 
  0.3770881     +/-    1.942746     %   0.4138812     +/-    1.895558     % 
  0.4432615     +/-    1.872116     %   0.4723842     +/-    1.823195     % 
  0.5019180     +/-    1.814191     %   0.5351843     +/-    1.793566     % 
  0.5714594     +/-    1.782071     %   0.6039809     +/-    1.778037     % 
  0.6335871     +/-    1.764597     %   0.7144657     +/-    1.691608     % 
  0.7769957     +/-    1.655496     %   0.8308033     +/-    1.622313     % 
  0.8895603     +/-    1.597089     %   0.9483645     +/-    1.583674     % 
   1.015837     +/-    1.568816     %    1.086336     +/-    1.554374     % 
   1.158331     +/-    1.536159     %    1.224805     +/-    1.543523     % 
   1.290834     +/-    1.549262     %    1.349161     +/-    1.534945     % 
   1.399918     +/-    1.517654     %    1.439368     +/-    1.511078     % 
   1.470496     +/-    1.509080     %    1.488578     +/-    1.513543     % 
   1.498661     +/-    1.507528     %    1.503371     +/-    1.508883     % 
   1.505697     +/-    1.507819     %    1.506822     +/-    1.506985     % 
   1.507492     +/-    1.506719     %    1.507877     +/-    1.506779     % 
   1.508293     +/-    1.506170     %    1.508586     +/-    1.505413     % 
   1.508667     +/-    1.505780     %    1.508761     +/-    1.505499     % 

  Detector n:  4  ME11_ep   
     (Volume:         1. cmc,
      distr. scored: 213   ,
      from reg. 242 )

     Tot. response (p/cmq/pr)  2.3333851E-02  +/-   5.454726     %
     ( --> Track l. (cm/pr)      2.3333851E-02  +/-   5.454726     % )

  **** Different. Fluxes as a function of energy ****
  ****      (integrated over solid angle)        ****


  Energy boundaries (GeV):

   99.99997       85.11378       72.44357       61.65948       52.48073    
   44.66835       38.01893       32.35936       27.54228       23.44228    
   19.95262       16.98243       14.45439       12.30268       10.47128    
   8.912507       7.585774       6.456541       5.495407       4.677350    
   3.981071       3.388441       2.884031       2.454708       2.089296    
   1.778279       1.513561       1.288249       1.096478      0.9332541    
  0.7943280      0.6760828      0.5754398      0.4897787      0.4168693    
  0.3548133      0.3019951      0.2570395      0.2187761      0.1862087    
  0.1584893      0.1348963      0.1148153      9.7723700E-02  8.3176360E-02
  7.0794567E-02  6.0255948E-02  5.1286127E-02  4.3651577E-02  3.7153516E-02
  3.1622771E-02  2.6915343E-02  2.2908673E-02  1.9498443E-02  1.6595867E-02
  1.4125373E-02  1.2022642E-02  1.0232928E-02  8.7096347E-03  7.4131014E-03
  6.3095726E-03  5.3703170E-03  4.5708814E-03  3.8904510E-03  3.3113109E-03
  2.8183826E-03  2.3988327E-03  2.0417378E-03  1.7378007E-03  1.4791082E-03
  1.2589253E-03  1.0715192E-03  9.1201073E-04  7.7624706E-04  6.6069339E-04
  5.6234124E-04  4.7863004E-04  4.0738023E-04  3.4673681E-04  2.9512090E-04
  2.5118861E-04  2.1379619E-04  1.8197007E-04  1.5488165E-04  1.3182567E-04
  1.1220184E-04  9.5499250E-05  8.1283048E-05  6.9183094E-05  5.8884361E-05
  5.0118721E-05  4.2657950E-05  3.6307803E-05  3.0902953E-05  2.6302680E-05
  2.2387210E-05  1.9054607E-05  1.6218100E-05  1.3803842E-05  1.1748975E-05
  Lowest boundary   (GeV):  9.9999997E-06

  Flux (Part/GeV/cmq/pr):

   0.000000     +/-    0.000000     %    0.000000     +/-    0.000000     % 
   0.000000     +/-    0.000000     %    0.000000     +/-    0.000000     % 
   0.000000     +/-    0.000000     %    0.000000     +/-    0.000000     % 
   0.000000     +/-    0.000000     %    0.000000     +/-    0.000000     % 
   0.000000     +/-    0.000000     %    0.000000     +/-    0.000000     % 
   0.000000     +/-    0.000000     %    0.000000     +/-    0.000000     % 
   0.000000     +/-    0.000000     %    0.000000     +/-    0.000000     % 
   0.000000     +/-    0.000000     %    0.000000     +/-    0.000000     % 
   0.000000     +/-    0.000000     %    0.000000     +/-    0.000000     % 
   0.000000     +/-    0.000000     %    0.000000     +/-    0.000000     % 
   0.000000     +/-    0.000000     %    0.000000     +/-    0.000000     % 
   0.000000     +/-    0.000000     %    0.000000     +/-    0.000000     % 
   0.000000     +/-    0.000000     %    0.000000     +/-    0.000000     % 
   0.000000     +/-    0.000000     %    0.000000     +/-    0.000000     % 
   0.000000     +/-    0.000000     %    0.000000     +/-    0.000000     % 
   0.000000     +/-    0.000000     %    0.000000     +/-    0.000000     % 
   0.000000     +/-    0.000000     %    0.000000     +/-    0.000000     % 
   0.000000     +/-    0.000000     %    0.000000     +/-    0.000000     % 
  5.8756321E-04 +/-    94.78259     %   2.5465223E-04 +/-    94.78259     % 
  1.4964213E-03 +/-    67.82195     %    0.000000     +/-    0.000000     % 
   0.000000     +/-    0.000000     %   4.9136620E-04 +/-    94.78259     % 
   0.000000     +/-    0.000000     %   2.5753512E-03 +/-    94.78259     % 
  1.5082809E-03 +/-    94.78259     %    0.000000     +/-    0.000000     % 
  5.4128622E-03 +/-    94.78259     %   2.4954884E-03 +/-    94.78259     % 
  4.0217438E-03 +/-    67.14564     %   1.6966518E-02 +/-    45.41474     % 
  2.3818122E-02 +/-    55.36060     %   1.3647358E-02 +/-    64.48604     % 
  2.2431701E-02 +/-    52.37586     %   4.8269209E-02 +/-    44.70461     % 
  1.9857839E-02 +/-    59.54744     %   5.4884288E-02 +/-    49.83149     % 
  4.1151937E-02 +/-    57.21747     %   4.0376730E-02 +/-    62.23252     % 
  8.7925956E-02 +/-    32.77845     %   0.4198142     +/-    20.09530     % 
  0.6234269     +/-    23.56678     %    1.087529     +/-    21.99942     % 
   1.250339     +/-    15.33170     %    1.556152     +/-    15.38243     % 
   1.658109     +/-    16.61651     %    2.782031     +/-    12.28040     % 
   2.607559     +/-    17.62729     %    4.433263     +/-    14.58321     % 
   4.359783     +/-    14.62632     %    4.924338     +/-    12.62979     % 
   5.643946     +/-    16.88195     %    9.727698     +/-    25.13607     % 
   6.929437     +/-    16.37286     %    6.897180     +/-    14.14195     % 
   10.59247     +/-    14.82214     %    12.09361     +/-    21.81579     % 
   11.64190     +/-    23.27037     %    8.680734     +/-    28.28498     % 
   11.68743     +/-    19.33969     %    13.41975     +/-    27.72329     % 
   12.51293     +/-    27.62268     %    16.84403     +/-    24.85656     % 
   14.05021     +/-    25.77518     %    11.20150     +/-    22.66644     % 
   10.33869     +/-    34.19219     %    12.08538     +/-    32.41375     % 
   17.71529     +/-    62.87106     %    10.07488     +/-    57.67782     % 
   16.34506     +/-    66.47357     %    13.47399     +/-    29.68950     % 
   18.43411     +/-    39.68262     %    19.87840     +/-    36.30710     % 
   14.93775     +/-    56.59504     %    11.00546     +/-    49.86721     % 
   0.000000     +/-    0.000000     %    0.000000     +/-    0.000000     % 
   0.000000     +/-    0.000000     %    0.000000     +/-    0.000000     % 
   0.000000     +/-    0.000000     %    0.000000     +/-    0.000000     % 


  **** Cumulative Fluxes as a function of energy ****
  ****      (integrated over solid angle)        ****


  Energy boundaries (GeV):


   99.99997       85.11378       72.44357       61.65948       52.48073    
   44.66835       38.01893       32.35936       27.54228       23.44228    
   19.95262       16.98243       14.45439       12.30268       10.47128    
   8.912507       7.585774       6.456541       5.495407       4.677350    
   3.981071       3.388441       2.884031       2.454708       2.089296    
   1.778279       1.513561       1.288249       1.096478      0.9332541    
  0.7943280      0.6760828      0.5754398      0.4897787      0.4168693    
  0.3548133      0.3019951      0.2570395      0.2187761      0.1862087    
  0.1584893      0.1348963      0.1148153      9.7723700E-02  8.3176360E-02
  7.0794567E-02  6.0255948E-02  5.1286127E-02  4.3651577E-02  3.7153516E-02
  3.1622771E-02  2.6915343E-02  2.2908673E-02  1.9498443E-02  1.6595867E-02
  1.4125373E-02  1.2022642E-02  1.0232928E-02  8.7096347E-03  7.4131014E-03
  6.3095726E-03  5.3703170E-03  4.5708814E-03  3.8904510E-03  3.3113109E-03
  2.8183826E-03  2.3988327E-03  2.0417378E-03  1.7378007E-03  1.4791082E-03
  1.2589253E-03  1.0715192E-03  9.1201073E-04  7.7624706E-04  6.6069339E-04
  5.6234124E-04  4.7863004E-04  4.0738023E-04  3.4673681E-04  2.9512090E-04
  2.5118861E-04  2.1379619E-04  1.8197007E-04  1.5488165E-04  1.3182567E-04
  1.1220184E-04  9.5499250E-05  8.1283048E-05  6.9183094E-05  5.8884361E-05
  5.0118721E-05  4.2657950E-05  3.6307803E-05  3.0902953E-05  2.6302680E-05
  2.2387210E-05  1.9054607E-05  1.6218100E-05  1.3803842E-05  1.1748975E-05
  Lowest boundary   (GeV):  9.9999997E-06

  Cumul. Flux (Part/cmq/pr):

   0.000000     +/-    0.000000     %    0.000000     +/-    0.000000     % 
   0.000000     +/-    0.000000     %    0.000000     +/-    0.000000     % 
   0.000000     +/-    0.000000     %    0.000000     +/-    0.000000     % 
   0.000000     +/-    0.000000     %    0.000000     +/-    0.000000     % 
   0.000000     +/-    0.000000     %    0.000000     +/-    0.000000     % 
   0.000000     +/-    0.000000     %    0.000000     +/-    0.000000     % 
   0.000000     +/-    0.000000     %    0.000000     +/-    0.000000     % 
   0.000000     +/-    0.000000     %    0.000000     +/-    0.000000     % 
   0.000000     +/-    0.000000     %    0.000000     +/-    0.000000     % 
   0.000000     +/-    0.000000     %    0.000000     +/-    0.000000     % 
   0.000000     +/-    0.000000     %    0.000000     +/-    0.000000     % 
   0.000000     +/-    0.000000     %    0.000000     +/-    0.000000     % 
   0.000000     +/-    0.000000     %    0.000000     +/-    0.000000     % 
   0.000000     +/-    0.000000     %    0.000000     +/-    0.000000     % 
   0.000000     +/-    0.000000     %    0.000000     +/-    0.000000     % 
   0.000000     +/-    0.000000     %    0.000000     +/-    0.000000     % 
   0.000000     +/-    0.000000     %    0.000000     +/-    0.000000     % 
   0.000000     +/-    0.000000     %    0.000000     +/-    0.000000     % 
  2.6414251E-05 +/-    94.78259     %   3.6158111E-05 +/-    73.69297     % 
  8.4892716E-05 +/-    56.35705     %   8.4892716E-05 +/-    56.35705     % 
  8.4892716E-05 +/-    56.35705     %   9.4759802E-05 +/-    51.37056     % 
  9.4759802E-05 +/-    51.37056     %   1.3222432E-04 +/-    59.48341     % 
  1.5089955E-04 +/-    62.97447     %   1.5089955E-04 +/-    62.97447     % 
  1.9945194E-04 +/-    52.79579     %   2.1850388E-04 +/-    48.82965     % 
  2.4463740E-04 +/-    44.11146     %   3.3847490E-04 +/-    40.30910     % 
  4.5059700E-04 +/-    39.34605     %   5.0527748E-04 +/-    37.16108     % 
  5.8177469E-04 +/-    36.07362     %   7.2187977E-04 +/-    31.07524     % 
  7.7093841E-04 +/-    29.69104     %   8.8634534E-04 +/-    29.64410     % 
  9.5999555E-04 +/-    30.69235     %   1.0215011E-03 +/-    31.62158     % 
  1.1355000E-03 +/-    29.51881     %   1.5987771E-03 +/-    23.60361     % 
  2.1843344E-03 +/-    19.46938     %   3.0537439E-03 +/-    15.39551     % 
  3.9045124E-03 +/-    12.84303     %   4.8057423E-03 +/-    11.15260     % 
  5.6230710E-03 +/-    10.08289     %   6.7902715E-03 +/-    8.856241     % 
  7.7214171E-03 +/-    8.100152     %   9.0688504E-03 +/-    7.177617     % 
  1.0196692E-02 +/-    6.838946     %   1.1280948E-02 +/-    6.507158     % 
  1.2338658E-02 +/-    6.210714     %   1.3890307E-02 +/-    6.522113     % 
  1.4831074E-02 +/-    6.518842     %   1.5628068E-02 +/-    6.314987     % 
  1.6669860E-02 +/-    6.140266     %   1.7682230E-02 +/-    5.925232     % 
  1.8511714E-02 +/-    5.855770     %   1.9038143E-02 +/-    5.744114     % 
  1.9641401E-02 +/-    5.641603     %   2.0230962E-02 +/-    5.557451     % 
  2.0698851E-02 +/-    5.537367     %   2.1234931E-02 +/-    5.506984     % 
  2.1615528E-02 +/-    5.487542     %   2.1873791E-02 +/-    5.457883     % 
  2.2076674E-02 +/-    5.466867     %   2.2278532E-02 +/-    5.457379     % 
  2.2530377E-02 +/-    5.484376     %   2.2652281E-02 +/-    5.450748     % 
  2.2820614E-02 +/-    5.530493     %   2.2938723E-02 +/-    5.510165     % 
  2.3076255E-02 +/-    5.489270     %   2.3202486E-02 +/-    5.455649     % 
  2.3283223E-02 +/-    5.455905     %   2.3333851E-02 +/-    5.454726     % 
  2.3333851E-02 +/-    5.454726     %   2.3333851E-02 +/-    5.454726     % 
  2.3333851E-02 +/-    5.454726     %   2.3333851E-02 +/-    5.454726     % 
  2.3333851E-02 +/-    5.454726     %   2.3333851E-02 +/-    5.454726     % 
